Correct input file in use: systemic/systemic_azimutsall_elevations48
All input parameter from the input file:
path: /home/bossel/These/Analysis/data/Night_pollution/
src_path: /home/bossel/These/Analysis/src/rayleigh/
saving_graphs: 0
save_path: /home/bossel/These/Documentation/Mes_articles/auroral_pola/sky_only/
save_name: 20190307_m_sky_only_aero_1low_albedo
flux_unit: W
use_analytic: false
azimuts: all
elevations: 48
location: skibotn
start_datetime: 20190116-02:44:00
end_datetime: 20190116-04:00:00
instrument_opening_angle: 1
instrument_area: 20
wavelength: 557.7
cst_Flux: 0
cst_DoLP: 0
cst_AoLP: 0
add_starlight: 0
add_B_pola: 0
RS_min_altitude: 0
RS_max_altitude: 100
Nb_points_along_los: 100
resolution_along_los: 0.5
max_angle_discretization: 0
Atmospheric_profile: atm_profiles/win.atm
use_ozone: 1
use_aerosol: 1
aer_complexity: 1
aer_model: maritime
aer_name: maritime_test
aer_nr: 1.6
aer_ni: -0.010
aer_rn0: 1
aer_rmg: 0.001
aer_ln_sigma: 0.657
aer_r_min: 0.001
aer_r_max: 50
aer_Hn: 0.440
aer_n0: 300
aer_nBK: 30
aer_ext_profile_name: mar
aer_single_scatter_albedo: 0.9
aer_phase_fct_asym_g: 0.7
sky_mode: image
direct_mode: only
emission_altitude: 110
Nb_emission_points: 1000
Nb_emission_maps: 1
I_zone_a_min: 0
I_zone_a_max: 360
I_zone_e_min: 0
I_zone_e_max: 90
sky_path: /home/bossel/These/Analysis/data/allsky_camera/tid.uio.no/plasma/aurora/
sky_file: skn4/5577/2019/20190308/ut01/skn4_20190308_012908_5577_cal.png
sky_wavelength: 557.7
use_alt_map: 1
alt_map_path: /home/bossel/These/Analysis/data/elevation/
alt_map_radius: 100
alt_map_N_bins_max: 0
alt_map_resolution: 0.5
ground_mode: none
shader_mode: none
ground_emission_radius: 100
ground_N_bins_max: 1000
ground_albedo: altitude_0.2_0.2_0.5_0.5_0.8
ground_path: /home/bossel/These/Analysis/data/Night_pollution/
ground_file: nighttime_light_files/SVDNB_npp_20160101-20161231_75N060W_vcm-orm-ntl_v10_c201807311200.avg_rade9.tif
Aerosol Model: maritime
Running aerosol optical properties. May take 10sec...
Loading the sky emission cube...
Importing all sky image data from: /home/bossel/These/Analysis/data/allsky_camera/tid.uio.no/plasma/aurora/skn4/5577/2019/20190308/ut01/skn4_20190308_012908_5577_cal.png
Sky cube loaded!
Has_sky_emission: True
Has_ground_emission: False
ALT MAP RESOLUTION lon, lat 0.5 1.417681295118693 0.49999999999999994
WARNING: Elevation tile not found: /home/bossel/These/Analysis/data/elevation/N070E015_N075E020/ALPSMLC30_N070E017_DSM.tif
WARNING: Elevation tile not found: /home/bossel/These/Analysis/data/elevation/N070E015_N075E020/ALPSMLC30_N070E018_DSM.tif
WARNING: Elevation tile not found: /home/bossel/These/Analysis/data/elevation/N070E015_N075E020/ALPSMLC30_N070E019_DSM.tif
Initialization DONE
*******************************************************************************************************************************
Starting calculation for SKY map 1/36:
Observation at point (20.363641, 69.348151), azimuth 0.0, elevation 48.00000000000001. Observed point at altitude 110.0, position (20.363640999999998, 70.2178498484323)
Starting time:  11:38:47
Computing DONE in:  0:00:00.000040
*******************************************************************************************************************************
Starting calculation for SKY map 2/36:
Observation at point (20.363641, 69.348151), azimuth 10.0, elevation 48.00000000000001. Observed point at altitude 110.0, position (20.809552892936754, 70.20408622447633)
Starting time:  11:38:47
Computing DONE in:  0:00:00.000021
*******************************************************************************************************************************
Starting calculation for SKY map 3/36:
Observation at point (20.363641, 69.348151), azimuth 20.0, elevation 48.00000000000001. Observed point at altitude 110.0, position (21.24020664163332, 70.1632675846977)
Starting time:  11:38:47
Computing DONE in:  0:00:00.000017
*******************************************************************************************************************************
Starting calculation for SKY map 4/36:
Observation at point (20.363641, 69.348151), azimuth 29.999999999999996, elevation 48.00000000000001. Observed point at altitude 110.0, position (21.64104274457536, 70.09678870079418)
Starting time:  11:38:47
Computing DONE in:  0:00:00.000019
*******************************************************************************************************************************
Starting calculation for SKY map 5/36:
Observation at point (20.363641, 69.348151), azimuth 40.0, elevation 48.00000000000001. Observed point at altitude 110.0, position (21.998840604405846, 70.0069030189413)
Starting time:  11:38:47
Computing DONE in:  0:00:00.000018
*******************************************************************************************************************************
Starting calculation for SKY map 6/36:
Observation at point (20.363641, 69.348151), azimuth 50.0, elevation 48.00000000000001. Observed point at altitude 110.0, position (22.302251208945847, 69.89662225983062)
Starting time:  11:38:47
Computing DONE in:  0:00:00.000018
*******************************************************************************************************************************
Starting calculation for SKY map 7/36:
Observation at point (20.363641, 69.348151), azimuth 59.99999999999999, elevation 48.00000000000001. Observed point at altitude 110.0, position (22.542189121544776, 69.76958751192109)
Starting time:  11:38:47
Computing DONE in:  0:00:00.000019
*******************************************************************************************************************************
Starting calculation for SKY map 8/36:
Observation at point (20.363641, 69.348151), azimuth 70.0, elevation 48.00000000000001. Observed point at altitude 110.0, position (22.71206991387239, 69.62992126212765)
Starting time:  11:38:47
Computing DONE in:  0:00:00.000019
*******************************************************************************************************************************
Starting calculation for SKY map 9/36:
Observation at point (20.363641, 69.348151), azimuth 80.0, elevation 48.00000000000001. Observed point at altitude 110.0, position (22.807897568348288, 69.48206996853965)
Starting time:  11:38:47
Computing DONE in:  0:00:00.000019
*******************************************************************************************************************************
Starting calculation for SKY map 10/36:
Observation at point (20.363641, 69.348151), azimuth 90.0, elevation 48.00000000000001. Observed point at altitude 110.0, position (22.82822079269707, 69.33064588380685)
Starting time:  11:38:47
Computing DONE in:  0:00:00.000019
*******************************************************************************************************************************
Starting calculation for SKY map 11/36:
Observation at point (20.363641, 69.348151), azimuth 100.0, elevation 48.00000000000001. Observed point at altitude 110.0, position (22.773986001012712, 69.180275238259)
Starting time:  11:38:47
Computing DONE in:  0:00:00.000018
*******************************************************************************************************************************
Starting calculation for SKY map 12/36:
Observation at point (20.363641, 69.348151), azimuth 110.0, elevation 48.00000000000001. Observed point at altitude 110.0, position (22.648317833822567, 69.03545798029647)
Starting time:  11:38:47
Computing DONE in:  0:00:00.000019
*******************************************************************************************************************************
Starting calculation for SKY map 13/36:
Observation at point (20.363641, 69.348151), azimuth 119.99999999999999, elevation 48.00000000000001. Observed point at altitude 110.0, position (22.45625654349544, 68.90044238607122)
Starting time:  11:38:47
Computing DONE in:  0:00:00.000018
*******************************************************************************************************************************
Starting calculation for SKY map 14/36:
Observation at point (20.363641, 69.348151), azimuth 130.0, elevation 48.00000000000001. Observed point at altitude 110.0, position (22.204476925754378, 68.77911622445562)
Starting time:  11:38:47
Computing DONE in:  0:00:00.000179
*******************************************************************************************************************************
Starting calculation for SKY map 15/36:
Observation at point (20.363641, 69.348151), azimuth 140.0, elevation 48.00000000000001. Observed point at altitude 110.0, position (21.90100731548518, 68.67491491656665)
Starting time:  11:38:47
Computing DONE in:  0:00:00.000035
*******************************************************************************************************************************
Starting calculation for SKY map 16/36:
Observation at point (20.363641, 69.348151), azimuth 150.0, elevation 48.00000000000001. Observed point at altitude 110.0, position (21.554960758577096, 68.59074628704539)
Starting time:  11:38:47
Computing DONE in:  0:00:00.000023
*******************************************************************************************************************************
Starting calculation for SKY map 17/36:
Observation at point (20.363641, 69.348151), azimuth 160.0, elevation 48.00000000000001. Observed point at altitude 110.0, position (21.17628466078812, 68.52893102946152)
Starting time:  11:38:47
Computing DONE in:  0:00:00.000019
*******************************************************************************************************************************
Starting calculation for SKY map 18/36:
Observation at point (20.363641, 69.348151), azimuth 170.0, elevation 48.00000000000001. Observed point at altitude 110.0, position (20.775530430535, 68.49115783162496)
Starting time:  11:38:47
Computing DONE in:  0:00:00.000018
*******************************************************************************************************************************
Starting calculation for SKY map 19/36:
Observation at point (20.363641, 69.348151), azimuth 180.0, elevation 48.00000000000001. Observed point at altitude 110.0, position (20.363641, 68.47845215156771)
Starting time:  11:38:47
Computing DONE in:  0:00:00.000021
*******************************************************************************************************************************
Starting calculation for SKY map 20/36:
Observation at point (20.363641, 69.348151), azimuth 190.0, elevation 48.00000000000001. Observed point at altitude 110.0, position (19.951751569464996, 68.49115783162496)
Starting time:  11:38:47
Computing DONE in:  0:00:00.000019
*******************************************************************************************************************************
Starting calculation for SKY map 21/36:
Observation at point (20.363641, 69.348151), azimuth 200.0, elevation 48.00000000000001. Observed point at altitude 110.0, position (19.550997339211882, 68.5289310294615)
Starting time:  11:38:47
Computing DONE in:  0:00:00.000019
*******************************************************************************************************************************
Starting calculation for SKY map 22/36:
Observation at point (20.363641, 69.348151), azimuth 210.00000000000003, elevation 48.00000000000001. Observed point at altitude 110.0, position (19.1723212414229, 68.59074628704539)
Starting time:  11:38:47
Computing DONE in:  0:00:00.000019
*******************************************************************************************************************************
Starting calculation for SKY map 23/36:
Observation at point (20.363641, 69.348151), azimuth 220.0, elevation 48.00000000000001. Observed point at altitude 110.0, position (18.82627468451482, 68.67491491656665)
Starting time:  11:38:47
Computing DONE in:  0:00:00.000018
*******************************************************************************************************************************
Starting calculation for SKY map 24/36:
Observation at point (20.363641, 69.348151), azimuth 230.0, elevation 48.00000000000001. Observed point at altitude 110.0, position (18.522805074245625, 68.77911622445562)
Starting time:  11:38:47
Computing DONE in:  0:00:00.000019
*******************************************************************************************************************************
Starting calculation for SKY map 25/36:
Observation at point (20.363641, 69.348151), azimuth 239.99999999999997, elevation 48.00000000000001. Observed point at altitude 110.0, position (18.27102545650456, 68.90044238607122)
Starting time:  11:38:47
Computing DONE in:  0:00:00.000019
*******************************************************************************************************************************
Starting calculation for SKY map 26/36:
Observation at point (20.363641, 69.348151), azimuth 250.00000000000003, elevation 48.00000000000001. Observed point at altitude 110.0, position (18.078964166177435, 69.03545798029647)
Starting time:  11:38:47
Computing DONE in:  0:00:00.000020
*******************************************************************************************************************************
Starting calculation for SKY map 27/36:
Observation at point (20.363641, 69.348151), azimuth 260.0, elevation 48.00000000000001. Observed point at altitude 110.0, position (17.953295998987283, 69.180275238259)
Starting time:  11:38:47
Computing DONE in:  0:00:00.000018
*******************************************************************************************************************************
Starting calculation for SKY map 28/36:
Observation at point (20.363641, 69.348151), azimuth 270.0, elevation 48.00000000000001. Observed point at altitude 110.0, position (17.899061207302925, 69.33064588380685)
Starting time:  11:38:47
Computing DONE in:  0:00:00.000018
*******************************************************************************************************************************
Starting calculation for SKY map 29/36:
Observation at point (20.363641, 69.348151), azimuth 280.0, elevation 48.00000000000001. Observed point at altitude 110.0, position (17.919384431651714, 69.48206996853965)
Starting time:  11:38:47
Computing DONE in:  0:00:00.000019
*******************************************************************************************************************************
Starting calculation for SKY map 30/36:
Observation at point (20.363641, 69.348151), azimuth 290.0, elevation 48.00000000000001. Observed point at altitude 110.0, position (18.01521208612761, 69.62992126212764)
Starting time:  11:38:47
Computing DONE in:  0:00:00.000027
*******************************************************************************************************************************
Starting calculation for SKY map 31/36:
Observation at point (20.363641, 69.348151), azimuth 300.0, elevation 48.00000000000001. Observed point at altitude 110.0, position (18.18509287845522, 69.76958751192109)
Starting time:  11:38:47
Computing DONE in:  0:00:00.000041
*******************************************************************************************************************************
Starting calculation for SKY map 32/36:
Observation at point (20.363641, 69.348151), azimuth 310.0, elevation 48.00000000000001. Observed point at altitude 110.0, position (18.425030791054155, 69.89662225983062)
Starting time:  11:38:47
Computing DONE in:  0:00:00.000050
*******************************************************************************************************************************
Starting calculation for SKY map 33/36:
Observation at point (20.363641, 69.348151), azimuth 320.0, elevation 48.00000000000001. Observed point at altitude 110.0, position (18.728441395594153, 70.0069030189413)
Starting time:  11:38:47
Computing DONE in:  0:00:00.000041
*******************************************************************************************************************************
Starting calculation for SKY map 34/36:
Observation at point (20.363641, 69.348151), azimuth 330.0, elevation 48.00000000000001. Observed point at altitude 110.0, position (19.086239255424637, 70.09678870079418)
Starting time:  11:38:47
Computing DONE in:  0:00:00.000023
*******************************************************************************************************************************
Starting calculation for SKY map 35/36:
Observation at point (20.363641, 69.348151), azimuth 340.0, elevation 48.00000000000001. Observed point at altitude 110.0, position (19.48707535836668, 70.1632675846977)
Starting time:  11:38:47
Computing DONE in:  0:00:00.000020
*******************************************************************************************************************************
Starting calculation for SKY map 36/36:
Observation at point (20.363641, 69.348151), azimuth 350.0, elevation 48.00000000000001. Observed point at altitude 110.0, position (19.91772910706324, 70.20408622447633)
Starting time:  11:38:47
Computing DONE in:  0:00:00.000022
Stacking processor results...
opt_depth, direct:
0.1749399746226892 4.065211453043823e-12
/usr/lib/python3/dist-packages/numpy/lib/histograms.py:908: RuntimeWarning: invalid value encountered in true_divide
  return n/db/n.sum(), bin_edges
opt_depth, direct:
0.1749399746226892 3.737662013026944e-12
opt_depth, direct:
0.1749399746226892 3.714745487141355e-12
opt_depth, direct:
0.1749399746226892 3.6371737387408994e-12
opt_depth, direct:
0.1749399746226892 4.080615512760573e-12
opt_depth, direct:
0.1749399746226892 4.147350283413669e-12
opt_depth, direct:
0.1749399746226892 4.462127364805491e-12
opt_depth, direct:
0.1749399746226892 4.513704425678158e-12
opt_depth, direct:
0.1749399746226892 4.1279848041347216e-12
opt_depth, direct:
0.1749399746226892 3.32329485289796e-12
opt_depth, direct:
0.1749399746226892 2.593774494129016e-12
opt_depth, direct:
0.1749399746226892 2.104650781287405e-12
opt_depth, direct:
0.1749399746226892 1.601620494649935e-12
opt_depth, direct:
0.1749399746226892 1.2422073623996245e-12
opt_depth, direct:
0.1749399746226892 9.904120835005238e-13
opt_depth, direct:
0.1749399746226892 7.888022591590419e-13
opt_depth, direct:
0.1749399746226892 7.729763110514286e-13
opt_depth, direct:
0.1749399746226892 9.003572705072449e-13
opt_depth, direct:
0.1749399746226892 7.704445671607292e-13
opt_depth, direct:
0.1749399746226892 6.961197069891548e-13
opt_depth, direct:
0.1749399746226892 6.512623860767679e-13
opt_depth, direct:
0.1749399746226892 6.241646733031346e-13
opt_depth, direct:
0.1749399746226892 6.75003016074489e-13
opt_depth, direct:
0.1749399746226892 6.940007249835061e-13
opt_depth, direct:
0.1749399746226892 7.375289208858407e-13
opt_depth, direct:
0.1749399746226892 7.732397818912012e-13
opt_depth, direct:
0.1749399746226892 8.84821904192233e-13
opt_depth, direct:
0.1749399746226892 1.0791931151383424e-12
opt_depth, direct:
0.1749399746226892 1.2885342168170291e-12
opt_depth, direct:
0.1749399746226892 1.6238480533983529e-12
opt_depth, direct:
0.1749399746226892 2.1726574759971924e-12
opt_depth, direct:
0.1749399746226892 3.1770834750368875e-12
opt_depth, direct:
0.1749399746226892 3.73788333593017e-12
opt_depth, direct:
0.1749399746226892 4.265249659040657e-12
opt_depth, direct:
0.1749399746226892 4.420469186348053e-12
opt_depth, direct:
0.1749399746226892 4.160053802248607e-12
Print results in log/20190307_v_rot_elevation_test.csv
Simulation ran in: 0:00:28.075330
