Correct input file in use: systemic/systemic_azimutsall_elevations20_point_src_dist5_point_src_az180_resolution_along_los0.1_RS_min_altitude0_RS_max_altitude100_wavelength391.4_emission_altitude90_max_angle_discretization40
Has_sky_emission: False
AzDistToLonLat 6.123233995736766e-16 -5.0 6.82121651410749e-20 -0.0007848061528802386 4.3457970411378814e-16 -5.0
Has_ground_emission: True
lagorge 0.10361906322688955 0.7891042478910105
ALT MAP BOUNDS 5.037613394081269 6.836256605918731 44.31302139408126 46.111664605918726
0.01569612305760477
ALT MAP BOUNDS 5.036200993144891 6.8348442049823515 44.309575523615855 46.10821873545331
ALT MAP BOUNDS 5.036200993144891 6.8348442049823515 44.309575523615855 46.10821873545331
Initialization DONE
*******************************************************************************************************************************
STARTING calculation for obs:
Observation at point (5.936935, 45.212343), azimuth 0.0, elevation 20.0. Observed point at altitude 90.0, position (5.936935, 47.301001575595684)
2923 bins to compute
  0%|          | 0/2923 [00:00<?, ?it/s] 10%|▉         | 292/2923 [00:00<00:00, 2913.79it/s] 21%|██        | 617/2923 [00:00<00:00, 3006.95it/s] 32%|███▏      | 931/2923 [00:00<00:00, 3044.80it/s] 42%|████▏     | 1231/2923 [00:00<00:00, 3030.38it/s] 53%|█████▎    | 1542/2923 [00:00<00:00, 3053.37it/s] 63%|██████▎   | 1841/2923 [00:00<00:00, 3031.87it/s] 73%|███████▎  | 2140/2923 [00:00<00:00, 3017.14it/s] 83%|████████▎ | 2436/2923 [00:00<00:00, 2997.55it/s] 93%|█████████▎| 2724/2923 [00:00<00:00, 2960.83it/s]100%|██████████| 2923/2923 [00:00<00:00, 3011.23it/s]
Computing DONE
*******************************************************************************************************************************
STARTING calculation for obs:
Observation at point (5.936935, 45.212343), azimuth 10.0, elevation 20.0. Observed point at altitude 90.0, position (6.4713191592753665, 47.268055494813396)
2923 bins to compute
  0%|          | 0/2923 [00:00<?, ?it/s] 11%|█         | 319/2923 [00:00<00:00, 3184.32it/s] 22%|██▏       | 656/2923 [00:00<00:00, 3237.44it/s] 34%|███▍      | 987/2923 [00:00<00:00, 3258.84it/s] 44%|████▍     | 1290/2923 [00:00<00:00, 3186.25it/s] 55%|█████▍    | 1598/2923 [00:00<00:00, 3152.87it/s] 65%|██████▌   | 1903/2923 [00:00<00:00, 3115.88it/s] 75%|███████▍  | 2191/2923 [00:00<00:00, 3038.37it/s] 85%|████████▌ | 2499/2923 [00:00<00:00, 3047.99it/s] 96%|█████████▌| 2801/2923 [00:00<00:00, 3037.18it/s]100%|██████████| 2923/2923 [00:00<00:00, 3101.18it/s]
Computing DONE
*******************************************************************************************************************************
STARTING calculation for obs:
Observation at point (5.936935, 45.212343), azimuth 20.0, elevation 20.0. Observed point at altitude 90.0, position (6.9875719588810865, 47.17033890881463)
2923 bins to compute
  0%|          | 0/2923 [00:00<?, ?it/s] 12%|█▏        | 357/2923 [00:00<00:00, 3561.94it/s] 24%|██▍       | 708/2923 [00:00<00:00, 3544.90it/s] 36%|███▌      | 1054/2923 [00:00<00:00, 3518.01it/s] 48%|████▊     | 1392/2923 [00:00<00:00, 3472.44it/s] 59%|█████▉    | 1724/2923 [00:00<00:00, 3422.06it/s] 70%|██████▉   | 2046/2923 [00:00<00:00, 3356.80it/s] 81%|████████  | 2366/2923 [00:00<00:00, 3307.44it/s] 92%|█████████▏| 2676/2923 [00:00<00:00, 3240.70it/s]100%|██████████| 2923/2923 [00:00<00:00, 3302.21it/s]
Computing DONE
*******************************************************************************************************************************
STARTING calculation for obs:
Observation at point (5.936935, 45.212343), azimuth 29.999999999999996, elevation 20.0. Observed point at altitude 90.0, position (7.468376539021074, 47.0111654448352)
2923 bins to compute
  0%|          | 0/2923 [00:00<?, ?it/s] 12%|█▏        | 362/2923 [00:00<00:00, 3618.17it/s] 24%|██▍       | 700/2923 [00:00<00:00, 3540.51it/s] 36%|███▌      | 1047/2923 [00:00<00:00, 3517.59it/s] 47%|████▋     | 1383/2923 [00:00<00:00, 3467.26it/s] 58%|█████▊    | 1707/2923 [00:00<00:00, 3393.56it/s] 69%|██████▉   | 2019/2923 [00:00<00:00, 3306.25it/s] 80%|███████▉  | 2324/2923 [00:00<00:00, 3224.65it/s] 90%|████████▉ | 2629/2923 [00:00<00:00, 3169.01it/s]100%|██████████| 2923/2923 [00:00<00:00, 3241.52it/s]
Computing DONE
*******************************************************************************************************************************
STARTING calculation for obs:
Observation at point (5.936935, 45.212343), azimuth 40.0, elevation 20.0. Observed point at altitude 90.0, position (7.897977710363808, 46.795891166701296)
2923 bins to compute
  0%|          | 0/2923 [00:00<?, ?it/s] 12%|█▏        | 357/2923 [00:00<00:00, 3568.43it/s] 24%|██▍       | 710/2923 [00:00<00:00, 3553.77it/s] 35%|███▌      | 1034/2923 [00:00<00:00, 3450.91it/s] 46%|████▌     | 1351/2923 [00:00<00:00, 3358.65it/s] 57%|█████▋    | 1660/2923 [00:00<00:00, 3271.28it/s] 67%|██████▋   | 1956/2923 [00:00<00:00, 3168.52it/s] 77%|███████▋  | 2253/2923 [00:00<00:00, 3104.32it/s] 87%|████████▋ | 2549/2923 [00:00<00:00, 3056.87it/s] 98%|█████████▊| 2856/2923 [00:00<00:00, 3058.62it/s]100%|██████████| 2923/2923 [00:00<00:00, 3166.51it/s]
Computing DONE
*******************************************************************************************************************************
STARTING calculation for obs:
Observation at point (5.936935, 45.212343), azimuth 50.0, elevation 20.0. Observed point at altitude 90.0, position (8.262805277083087, 46.53167953770235)
2923 bins to compute
  0%|          | 0/2923 [00:00<?, ?it/s] 13%|█▎        | 374/2923 [00:00<00:00, 3736.32it/s] 25%|██▍       | 723/2923 [00:00<00:00, 3656.71it/s] 37%|███▋      | 1074/2923 [00:00<00:00, 3609.39it/s] 49%|████▊     | 1420/2923 [00:00<00:00, 3561.40it/s] 60%|██████    | 1761/2923 [00:00<00:00, 3512.74it/s] 72%|███████▏  | 2095/2923 [00:00<00:00, 3458.02it/s] 83%|████████▎ | 2424/2923 [00:00<00:00, 3403.46it/s] 94%|█████████▎| 2740/2923 [00:00<00:00, 3326.47it/s]100%|██████████| 2923/2923 [00:00<00:00, 3396.08it/s]
Computing DONE
*******************************************************************************************************************************
STARTING calculation for obs:
Observation at point (5.936935, 45.212343), azimuth 59.99999999999999, elevation 20.0. Observed point at altitude 90.0, position (8.551935838862976, 46.227199636632825)
2923 bins to compute
  0%|          | 0/2923 [00:00<?, ?it/s] 13%|█▎        | 377/2923 [00:00<00:00, 3762.66it/s] 25%|██▌       | 745/2923 [00:00<00:00, 3735.50it/s] 38%|███▊      | 1098/2923 [00:00<00:00, 3671.04it/s] 49%|████▉     | 1443/2923 [00:00<00:00, 3600.82it/s] 59%|█████▉    | 1730/2923 [00:00<00:00, 3343.28it/s] 70%|███████   | 2057/2923 [00:00<00:00, 3318.25it/s] 81%|████████▏ | 2382/2923 [00:00<00:00, 3294.68it/s] 92%|█████████▏| 2702/2923 [00:00<00:00, 3265.58it/s]100%|██████████| 2923/2923 [00:00<00:00, 3351.84it/s]
Computing DONE
*******************************************************************************************************************************
STARTING calculation for obs:
Observation at point (5.936935, 45.212343), azimuth 70.0, elevation 20.0. Observed point at altitude 90.0, position (8.757377733037217, 45.89227953972443)
2923 bins to compute
  0%|          | 0/2923 [00:00<?, ?it/s] 12%|█▏        | 344/2923 [00:00<00:00, 3433.05it/s] 24%|██▍       | 708/2923 [00:00<00:00, 3492.48it/s] 36%|███▋      | 1064/2923 [00:00<00:00, 3512.13it/s] 48%|████▊     | 1406/2923 [00:00<00:00, 3483.69it/s] 60%|█████▉    | 1742/2923 [00:00<00:00, 3445.02it/s] 71%|███████   | 2062/2923 [00:00<00:00, 3366.79it/s] 81%|████████▏ | 2380/2923 [00:00<00:00, 3305.77it/s] 92%|█████████▏| 2694/2923 [00:00<00:00, 3251.19it/s]100%|██████████| 2923/2923 [00:00<00:00, 3326.04it/s]
Computing DONE
*******************************************************************************************************************************
STARTING calculation for obs:
Observation at point (5.936935, 45.212343), azimuth 80.0, elevation 20.0. Observed point at altitude 90.0, position (8.874184825979297, 45.53753696051658)
2923 bins to compute
  0%|          | 0/2923 [00:00<?, ?it/s] 12%|█▏        | 347/2923 [00:00<00:00, 3467.92it/s] 24%|██▎       | 689/2923 [00:00<00:00, 3451.00it/s] 35%|███▌      | 1030/2923 [00:00<00:00, 3436.01it/s] 47%|████▋     | 1371/2923 [00:00<00:00, 3427.98it/s] 58%|█████▊    | 1698/2923 [00:00<00:00, 3376.04it/s] 69%|██████▉   | 2010/2923 [00:00<00:00, 3292.12it/s] 79%|███████▉  | 2308/2923 [00:00<00:00, 3191.82it/s] 89%|████████▉ | 2615/2923 [00:00<00:00, 3152.01it/s]100%|█████████▉| 2913/2923 [00:00<00:00, 3096.41it/s]100%|██████████| 2923/2923 [00:00<00:00, 3229.70it/s]
Computing DONE
*******************************************************************************************************************************
STARTING calculation for obs:
Observation at point (5.936935, 45.212343), azimuth 90.0, elevation 20.0. Observed point at altitude 90.0, position (8.900420994444469, 45.17400698530759)
2923 bins to compute
  0%|          | 0/2923 [00:00<?, ?it/s] 12%|█▏        | 350/2923 [00:00<00:00, 3499.57it/s] 24%|██▍       | 707/2923 [00:00<00:00, 3520.14it/s] 36%|███▋      | 1060/2923 [00:00<00:00, 3521.60it/s] 48%|████▊     | 1403/2923 [00:00<00:00, 3491.52it/s] 60%|█████▉    | 1744/2923 [00:00<00:00, 3463.75it/s] 71%|███████   | 2073/2923 [00:00<00:00, 3407.07it/s] 82%|████████▏ | 2389/2923 [00:00<00:00, 3326.70it/s] 93%|█████████▎| 2704/2923 [00:00<00:00, 3271.62it/s]100%|██████████| 2923/2923 [00:00<00:00, 3353.04it/s]
Computing DONE
*******************************************************************************************************************************
STARTING calculation for obs:
Observation at point (5.936935, 45.212343), azimuth 100.0, elevation 20.0. Observed point at altitude 90.0, position (8.837006600532286, 44.8127829510436)
2923 bins to compute
  0%|          | 0/2923 [00:00<?, ?it/s] 13%|█▎        | 372/2923 [00:00<00:00, 3718.04it/s] 25%|██▌       | 735/2923 [00:00<00:00, 3689.60it/s] 37%|███▋      | 1082/2923 [00:00<00:00, 3618.22it/s] 49%|████▊     | 1424/2923 [00:00<00:00, 3553.80it/s] 60%|██████    | 1756/2923 [00:00<00:00, 3477.48it/s] 71%|███████▏  | 2083/2923 [00:00<00:00, 3411.72it/s] 82%|████████▏ | 2404/2923 [00:00<00:00, 3347.83it/s] 93%|█████████▎| 2709/2923 [00:00<00:00, 3227.05it/s]100%|██████████| 2923/2923 [00:00<00:00, 3335.91it/s]
Computing DONE
*******************************************************************************************************************************
STARTING calculation for obs:
Observation at point (5.936935, 45.212343), azimuth 110.0, elevation 20.0. Observed point at altitude 90.0, position (8.68748115557332, 44.46468214159375)
2923 bins to compute
  0%|          | 0/2923 [00:00<?, ?it/s] 12%|█▏        | 361/2923 [00:00<00:00, 3603.16it/s] 24%|██▍       | 707/2923 [00:00<00:00, 3556.71it/s] 36%|███▌      | 1051/2923 [00:00<00:00, 3517.99it/s] 47%|████▋     | 1381/2923 [00:00<00:00, 3449.62it/s] 57%|█████▋    | 1663/2923 [00:00<00:00, 3229.96it/s] 68%|██████▊   | 1978/2923 [00:00<00:00, 3204.83it/s] 78%|███████▊  | 2275/2923 [00:00<00:00, 3128.55it/s] 88%|████████▊ | 2584/2923 [00:00<00:00, 3116.80it/s] 98%|█████████▊| 2877/2923 [00:00<00:00, 3047.90it/s]100%|██████████| 2923/2923 [00:00<00:00, 3186.41it/s]
Computing DONE
*******************************************************************************************************************************
STARTING calculation for obs:
Observation at point (5.936935, 45.212343), azimuth 119.99999999999999, elevation 20.0. Observed point at altitude 90.0, position (8.457714074680892, 44.13994381422376)
2923 bins to compute
  0%|          | 0/2923 [00:00<?, ?it/s] 13%|█▎        | 371/2923 [00:00<00:00, 3708.28it/s] 25%|██▍       | 718/2923 [00:00<00:00, 3632.96it/s] 35%|███▍      | 1009/2923 [00:00<00:00, 3380.05it/s] 46%|████▌     | 1332/2923 [00:00<00:00, 3330.76it/s] 55%|█████▌    | 1616/2923 [00:00<00:00, 3164.60it/s] 67%|██████▋   | 1947/2923 [00:00<00:00, 3204.23it/s] 77%|███████▋  | 2262/2923 [00:00<00:00, 3187.25it/s] 87%|████████▋ | 2553/2923 [00:00<00:00, 2991.52it/s] 98%|█████████▊| 2858/2923 [00:00<00:00, 3006.23it/s]100%|██████████| 2923/2923 [00:00<00:00, 3129.41it/s]
Computing DONE
*******************************************************************************************************************************
STARTING calculation for obs:
Observation at point (5.936935, 45.212343), azimuth 130.0, elevation 20.0. Observed point at altitude 90.0, position (8.155589882690766, 43.84796361438061)
2923 bins to compute
  0%|          | 0/2923 [00:00<?, ?it/s] 11%|█         | 317/2923 [00:00<00:00, 3165.53it/s] 21%|██▏       | 628/2923 [00:00<00:00, 3147.36it/s] 32%|███▏      | 946/2923 [00:00<00:00, 3154.59it/s] 43%|████▎     | 1267/2923 [00:00<00:00, 3170.57it/s] 54%|█████▎    | 1569/2923 [00:00<00:00, 3120.86it/s] 65%|██████▍   | 1892/2923 [00:00<00:00, 3151.41it/s] 76%|███████▌  | 2224/2923 [00:00<00:00, 3199.78it/s] 87%|████████▋ | 2549/2923 [00:00<00:00, 3212.50it/s] 98%|█████████▊| 2860/2923 [00:00<00:00, 3180.27it/s]100%|██████████| 2923/2923 [00:00<00:00, 3164.82it/s]
Computing DONE
*******************************************************************************************************************************
STARTING calculation for obs:
Observation at point (5.936935, 45.212343), azimuth 140.0, elevation 20.0. Observed point at altitude 90.0, position (7.790687311353635, 43.59706590770264)
2923 bins to compute
  0%|          | 0/2923 [00:00<?, ?it/s] 12%|█▏        | 338/2923 [00:00<00:00, 3376.33it/s] 24%|██▎       | 689/2923 [00:00<00:00, 3415.15it/s] 36%|███▌      | 1048/2923 [00:00<00:00, 3464.06it/s] 48%|████▊     | 1402/2923 [00:00<00:00, 3486.30it/s] 60%|█████▉    | 1744/2923 [00:00<00:00, 3463.71it/s] 71%|███████   | 2079/2923 [00:00<00:00, 3427.24it/s] 82%|████████▏ | 2411/2923 [00:00<00:00, 3393.12it/s] 93%|█████████▎| 2723/2923 [00:00<00:00, 3246.78it/s]100%|██████████| 2923/2923 [00:00<00:00, 3316.78it/s]
Computing DONE
*******************************************************************************************************************************
STARTING calculation for obs:
Observation at point (5.936935, 45.212343), azimuth 150.0, elevation 20.0. Observed point at altitude 90.0, position (7.3739648561595645, 43.394313940865466)
2923 bins to compute
  0%|          | 0/2923 [00:00<?, ?it/s] 11%|█         | 318/2923 [00:00<00:00, 3175.26it/s] 22%|██▏       | 636/2923 [00:00<00:00, 3174.66it/s] 32%|███▏      | 934/2923 [00:00<00:00, 3112.52it/s] 43%|████▎     | 1249/2923 [00:00<00:00, 3123.65it/s] 53%|█████▎    | 1551/2923 [00:00<00:00, 3089.91it/s] 62%|██████▏   | 1810/2923 [00:00<00:00, 2919.32it/s] 71%|███████   | 2067/2923 [00:00<00:00, 2737.89it/s] 79%|███████▉  | 2319/2923 [00:00<00:00, 2588.13it/s] 88%|████████▊ | 2564/2923 [00:00<00:00, 2503.90it/s] 97%|█████████▋| 2840/2923 [00:01<00:00, 2574.85it/s]100%|██████████| 2923/2923 [00:01<00:00, 2772.86it/s]
Computing DONE
*******************************************************************************************************************************
STARTING calculation for obs:
Observation at point (5.936935, 45.212343), azimuth 160.0, elevation 20.0. Observed point at altitude 90.0, position (6.917459413305665, 43.245356887161925)
2923 bins to compute
  0%|          | 0/2923 [00:00<?, ?it/s] 11%|█         | 313/2923 [00:00<00:00, 3124.19it/s] 22%|██▏       | 631/2923 [00:00<00:00, 3139.75it/s] 33%|███▎      | 955/2923 [00:00<00:00, 3168.43it/s] 44%|████▍     | 1282/2923 [00:00<00:00, 3197.81it/s] 55%|█████▍    | 1598/2923 [00:00<00:00, 3184.60it/s] 65%|██████▌   | 1914/2923 [00:00<00:00, 3176.29it/s] 76%|███████▌  | 2228/2923 [00:00<00:00, 3165.28it/s] 86%|████████▌ | 2519/2923 [00:00<00:00, 2897.02it/s] 96%|█████████▌| 2796/2923 [00:00<00:00, 2748.46it/s]100%|██████████| 2923/2923 [00:00<00:00, 2977.64it/s]
Computing DONE
*******************************************************************************************************************************
STARTING calculation for obs:
Observation at point (5.936935, 45.212343), azimuth 170.0, elevation 20.0. Observed point at altitude 90.0, position (6.433999970334682, 43.15431253357446)
2923 bins to compute
  0%|          | 0/2923 [00:00<?, ?it/s] 11%|█         | 324/2923 [00:00<00:00, 3228.33it/s] 22%|██▏       | 652/2923 [00:00<00:00, 3241.87it/s] 33%|███▎      | 979/2923 [00:00<00:00, 3248.68it/s] 44%|████▍     | 1295/2923 [00:00<00:00, 3219.09it/s] 55%|█████▌    | 1611/2923 [00:00<00:00, 3199.68it/s] 66%|██████▌   | 1924/2923 [00:00<00:00, 3178.43it/s] 76%|███████▌  | 2211/2923 [00:00<00:00, 3076.35it/s] 86%|████████▌ | 2500/2923 [00:00<00:00, 3016.65it/s] 96%|█████████▌| 2795/2923 [00:00<00:00, 2994.25it/s]100%|██████████| 2923/2923 [00:00<00:00, 3082.40it/s]
Computing DONE
*******************************************************************************************************************************
STARTING calculation for obs:
Observation at point (5.936935, 45.212343), azimuth 180.0, elevation 20.0. Observed point at altitude 90.0, position (5.936935, 43.12368442440431)
2923 bins to compute
  0%|          | 0/2923 [00:00<?, ?it/s]  9%|▉         | 265/2923 [00:00<00:01, 2644.93it/s] 17%|█▋        | 506/2923 [00:00<00:00, 2568.51it/s] 28%|██▊       | 811/2923 [00:00<00:00, 2696.06it/s] 39%|███▊      | 1129/2923 [00:00<00:00, 2823.50it/s] 49%|████▉     | 1439/2923 [00:00<00:00, 2899.64it/s] 59%|█████▉    | 1729/2923 [00:00<00:00, 2899.53it/s] 70%|██████▉   | 2032/2923 [00:00<00:00, 2935.94it/s] 80%|███████▉  | 2326/2923 [00:00<00:00, 2935.62it/s] 90%|████████▉ | 2621/2923 [00:00<00:00, 2937.64it/s]100%|█████████▉| 2913/2923 [00:01<00:00, 2931.12it/s]100%|██████████| 2923/2923 [00:01<00:00, 2907.50it/s]
Computing DONE
*******************************************************************************************************************************
STARTING calculation for obs:
Observation at point (5.936935, 45.212343), azimuth 190.0, elevation 20.0. Observed point at altitude 90.0, position (5.439870029665318, 43.154312533574455)
2923 bins to compute
  0%|          | 0/2923 [00:00<?, ?it/s] 12%|█▏        | 339/2923 [00:00<00:00, 3389.40it/s] 23%|██▎       | 683/2923 [00:00<00:00, 3402.11it/s] 34%|███▍      | 1005/2923 [00:00<00:00, 3344.78it/s] 45%|████▌     | 1321/2923 [00:00<00:00, 3285.60it/s] 56%|█████▌    | 1641/2923 [00:00<00:00, 3258.37it/s] 67%|██████▋   | 1946/2923 [00:00<00:00, 3191.03it/s] 77%|███████▋  | 2245/2923 [00:00<00:00, 3126.07it/s] 87%|████████▋ | 2545/2923 [00:00<00:00, 3084.74it/s] 97%|█████████▋| 2835/2923 [00:00<00:00, 2940.80it/s]100%|██████████| 2923/2923 [00:00<00:00, 3105.66it/s]
Computing DONE
*******************************************************************************************************************************
STARTING calculation for obs:
Observation at point (5.936935, 45.212343), azimuth 200.0, elevation 20.0. Observed point at altitude 90.0, position (4.956410586694335, 43.245356887161925)
2923 bins to compute
  0%|          | 0/2923 [00:00<?, ?it/s] 12%|█▏        | 346/2923 [00:00<00:00, 3449.83it/s] 23%|██▎       | 685/2923 [00:00<00:00, 3430.54it/s] 35%|███▍      | 1022/2923 [00:00<00:00, 3411.54it/s] 46%|████▌     | 1349/2923 [00:00<00:00, 3364.85it/s] 57%|█████▋    | 1668/2923 [00:00<00:00, 3308.52it/s] 68%|██████▊   | 1980/2923 [00:00<00:00, 3249.59it/s] 78%|███████▊  | 2279/2923 [00:00<00:00, 3163.98it/s] 88%|████████▊ | 2578/2923 [00:00<00:00, 3108.14it/s] 98%|█████████▊| 2872/2923 [00:00<00:00, 3055.29it/s]100%|██████████| 2923/2923 [00:00<00:00, 3182.06it/s]
Computing DONE
*******************************************************************************************************************************
STARTING calculation for obs:
Observation at point (5.936935, 45.212343), azimuth 210.00000000000003, elevation 20.0. Observed point at altitude 90.0, position (4.4999051438404365, 43.394313940865466)
2923 bins to compute
  0%|          | 0/2923 [00:00<?, ?it/s] 12%|█▏        | 365/2923 [00:00<00:00, 3639.87it/s] 24%|██▍       | 707/2923 [00:00<00:00, 3567.80it/s] 35%|███▌      | 1036/2923 [00:00<00:00, 3476.72it/s] 47%|████▋     | 1367/2923 [00:00<00:00, 3424.94it/s] 58%|█████▊    | 1697/2923 [00:00<00:00, 3383.80it/s] 69%|██████▉   | 2017/2923 [00:00<00:00, 3325.79it/s] 79%|███████▉  | 2322/2923 [00:00<00:00, 3237.43it/s] 90%|████████▉ | 2617/2923 [00:00<00:00, 3133.70it/s]100%|█████████▉| 2911/2923 [00:00<00:00, 3031.84it/s]100%|██████████| 2923/2923 [00:00<00:00, 3207.41it/s]
Computing DONE
*******************************************************************************************************************************
STARTING calculation for obs:
Observation at point (5.936935, 45.212343), azimuth 220.0, elevation 20.0. Observed point at altitude 90.0, position (4.0831826886463665, 43.59706590770264)
2923 bins to compute
  0%|          | 0/2923 [00:00<?, ?it/s] 12%|█▏        | 348/2923 [00:00<00:00, 3474.89it/s] 24%|██▎       | 693/2923 [00:00<00:00, 3466.37it/s] 35%|███▍      | 1014/2923 [00:00<00:00, 3383.59it/s] 46%|████▌     | 1340/2923 [00:00<00:00, 3341.70it/s] 57%|█████▋    | 1669/2923 [00:00<00:00, 3323.98it/s] 68%|██████▊   | 1990/2923 [00:00<00:00, 3286.97it/s] 79%|███████▊  | 2299/2923 [00:00<00:00, 3222.70it/s] 89%|████████▉ | 2606/2923 [00:00<00:00, 3173.91it/s]100%|█████████▉| 2909/2923 [00:00<00:00, 3126.78it/s]100%|██████████| 2923/2923 [00:00<00:00, 3223.30it/s]
Computing DONE
*******************************************************************************************************************************
STARTING calculation for obs:
Observation at point (5.936935, 45.212343), azimuth 230.0, elevation 20.0. Observed point at altitude 90.0, position (3.718280117309238, 43.84796361438062)
2923 bins to compute
  0%|          | 0/2923 [00:00<?, ?it/s] 12%|█▏        | 349/2923 [00:00<00:00, 3488.18it/s] 24%|██▍       | 695/2923 [00:00<00:00, 3478.86it/s] 35%|███▌      | 1029/2923 [00:00<00:00, 3432.88it/s] 47%|████▋     | 1360/2923 [00:00<00:00, 3392.10it/s] 57%|█████▋    | 1674/2923 [00:00<00:00, 3311.63it/s] 68%|██████▊   | 1987/2923 [00:00<00:00, 3253.70it/s] 79%|███████▊  | 2298/2923 [00:00<00:00, 3208.17it/s] 89%|████████▉ | 2597/2923 [00:00<00:00, 3138.16it/s] 99%|█████████▉| 2892/2923 [00:00<00:00, 3066.89it/s]100%|██████████| 2923/2923 [00:00<00:00, 3200.53it/s]
Computing DONE
*******************************************************************************************************************************
STARTING calculation for obs:
Observation at point (5.936935, 45.212343), azimuth 239.99999999999997, elevation 20.0. Observed point at altitude 90.0, position (3.41615592531911, 44.13994381422376)
2923 bins to compute
  0%|          | 0/2923 [00:00<?, ?it/s] 10%|▉         | 289/2923 [00:00<00:00, 2886.81it/s] 21%|██▏       | 624/2923 [00:00<00:00, 3010.01it/s] 32%|███▏      | 926/2923 [00:00<00:00, 3011.27it/s] 42%|████▏     | 1221/2923 [00:00<00:00, 2991.14it/s] 53%|█████▎    | 1538/2923 [00:00<00:00, 3039.67it/s] 63%|██████▎   | 1845/2923 [00:00<00:00, 3047.53it/s] 74%|███████▍  | 2156/2923 [00:00<00:00, 3065.00it/s] 84%|████████▍ | 2454/2923 [00:00<00:00, 3037.99it/s] 94%|█████████▍| 2752/2923 [00:00<00:00, 3018.74it/s]100%|██████████| 2923/2923 [00:00<00:00, 3047.85it/s]
Computing DONE
*******************************************************************************************************************************
STARTING calculation for obs:
Observation at point (5.936935, 45.212343), azimuth 250.00000000000003, elevation 20.0. Observed point at altitude 90.0, position (3.186388844426683, 44.46468214159374)
2923 bins to compute
  0%|          | 0/2923 [00:00<?, ?it/s] 12%|█▏        | 359/2923 [00:00<00:00, 3581.52it/s] 24%|██▍       | 706/2923 [00:00<00:00, 3546.31it/s] 36%|███▌      | 1049/2923 [00:00<00:00, 3509.46it/s] 47%|████▋     | 1360/2923 [00:00<00:00, 3378.21it/s] 57%|█████▋    | 1670/2923 [00:00<00:00, 3286.33it/s] 68%|██████▊   | 1980/2923 [00:00<00:00, 3225.60it/s] 78%|███████▊  | 2290/2923 [00:00<00:00, 3185.20it/s] 89%|████████▊ | 2593/2923 [00:00<00:00, 3135.26it/s] 99%|█████████▉| 2887/2923 [00:00<00:00, 3041.47it/s]100%|██████████| 2923/2923 [00:00<00:00, 3183.96it/s]
Computing DONE
*******************************************************************************************************************************
STARTING calculation for obs:
Observation at point (5.936935, 45.212343), azimuth 260.0, elevation 20.0. Observed point at altitude 90.0, position (3.036863399467713, 44.81278295104361)
2923 bins to compute
  0%|          | 0/2923 [00:00<?, ?it/s] 12%|█▏        | 342/2923 [00:00<00:00, 3416.25it/s] 22%|██▏       | 654/2923 [00:00<00:00, 3320.06it/s] 33%|███▎      | 961/2923 [00:00<00:00, 3238.63it/s] 44%|████▍     | 1285/2923 [00:00<00:00, 3237.22it/s] 55%|█████▌    | 1608/2923 [00:00<00:00, 3233.45it/s] 66%|██████▌   | 1918/2923 [00:00<00:00, 3190.09it/s] 76%|███████▌  | 2218/2923 [00:00<00:00, 3130.50it/s] 86%|████████▋ | 2528/2923 [00:00<00:00, 3120.47it/s] 97%|█████████▋| 2846/2923 [00:00<00:00, 3136.43it/s]100%|██████████| 2923/2923 [00:00<00:00, 3148.99it/s]
Computing DONE
*******************************************************************************************************************************
STARTING calculation for obs:
Observation at point (5.936935, 45.212343), azimuth 270.0, elevation 20.0. Observed point at altitude 90.0, position (2.973449005555532, 45.17400698530759)
2923 bins to compute
  0%|          | 0/2923 [00:00<?, ?it/s] 12%|█▏        | 349/2923 [00:00<00:00, 3480.59it/s] 22%|██▏       | 655/2923 [00:00<00:00, 3336.47it/s] 34%|███▎      | 986/2923 [00:00<00:00, 3327.89it/s] 45%|████▍     | 1311/2923 [00:00<00:00, 3299.58it/s] 55%|█████▌    | 1616/2923 [00:00<00:00, 3220.11it/s] 67%|██████▋   | 1944/2923 [00:00<00:00, 3235.93it/s] 77%|███████▋  | 2264/2923 [00:00<00:00, 3222.91it/s] 88%|████████▊ | 2559/2923 [00:00<00:00, 3023.96it/s] 97%|█████████▋| 2845/2923 [00:00<00:00, 2964.61it/s]100%|██████████| 2923/2923 [00:00<00:00, 3097.78it/s]
Computing DONE
*******************************************************************************************************************************
STARTING calculation for obs:
Observation at point (5.936935, 45.212343), azimuth 280.0, elevation 20.0. Observed point at altitude 90.0, position (2.9996851740207044, 45.53753696051658)
2923 bins to compute
  0%|          | 0/2923 [00:00<?, ?it/s] 12%|█▏        | 346/2923 [00:00<00:00, 3450.98it/s] 23%|██▎       | 673/2923 [00:00<00:00, 3393.89it/s] 33%|███▎      | 953/2923 [00:00<00:00, 3187.89it/s] 42%|████▏     | 1229/2923 [00:00<00:00, 3044.26it/s] 52%|█████▏    | 1533/2923 [00:00<00:00, 3039.83it/s] 63%|██████▎   | 1843/2923 [00:00<00:00, 3057.39it/s] 74%|███████▍  | 2156/2923 [00:00<00:00, 3077.08it/s] 84%|████████▍ | 2454/2923 [00:00<00:00, 3047.25it/s] 94%|█████████▎| 2740/2923 [00:00<00:00, 2952.26it/s]100%|██████████| 2923/2923 [00:00<00:00, 3009.92it/s]
Computing DONE
*******************************************************************************************************************************
STARTING calculation for obs:
Observation at point (5.936935, 45.212343), azimuth 290.0, elevation 20.0. Observed point at altitude 90.0, position (3.116492266962785, 45.89227953972442)
2923 bins to compute
  0%|          | 0/2923 [00:00<?, ?it/s] 12%|█▏        | 343/2923 [00:00<00:00, 3429.95it/s] 23%|██▎       | 675/2923 [00:00<00:00, 3395.87it/s] 34%|███▎      | 980/2923 [00:00<00:00, 3281.55it/s] 45%|████▍     | 1306/2923 [00:00<00:00, 3274.06it/s] 55%|█████▌    | 1614/2923 [00:00<00:00, 3211.74it/s] 66%|██████▌   | 1920/2923 [00:00<00:00, 3164.65it/s] 76%|███████▌  | 2211/2923 [00:00<00:00, 3080.98it/s] 86%|████████▌ | 2513/2923 [00:00<00:00, 3061.18it/s] 96%|█████████▌| 2807/2923 [00:00<00:00, 3022.27it/s]100%|██████████| 2923/2923 [00:00<00:00, 3102.38it/s]
Computing DONE
*******************************************************************************************************************************
STARTING calculation for obs:
Observation at point (5.936935, 45.212343), azimuth 300.0, elevation 20.0. Observed point at altitude 90.0, position (3.321934161137025, 46.22719963663282)
2923 bins to compute
  0%|          | 0/2923 [00:00<?, ?it/s] 12%|█▏        | 352/2923 [00:00<00:00, 3511.70it/s] 24%|██▍       | 695/2923 [00:00<00:00, 3485.72it/s] 35%|███▍      | 1021/2923 [00:00<00:00, 3412.44it/s] 46%|████▋     | 1353/2923 [00:00<00:00, 3383.96it/s] 56%|█████▌    | 1637/2923 [00:00<00:00, 3197.50it/s] 65%|██████▌   | 1901/2923 [00:00<00:00, 2730.43it/s] 76%|███████▌  | 2208/2923 [00:00<00:00, 2821.53it/s] 86%|████████▌ | 2503/2923 [00:00<00:00, 2855.95it/s] 95%|█████████▍| 2776/2923 [00:00<00:00, 2768.46it/s]100%|██████████| 2923/2923 [00:00<00:00, 2948.30it/s]
Computing DONE
*******************************************************************************************************************************
STARTING calculation for obs:
Observation at point (5.936935, 45.212343), azimuth 310.0, elevation 20.0. Observed point at altitude 90.0, position (3.6110647229169124, 46.53167953770235)
2923 bins to compute
  0%|          | 0/2923 [00:00<?, ?it/s]  9%|▊         | 249/2923 [00:00<00:01, 2484.91it/s] 19%|█▉        | 553/2923 [00:00<00:00, 2627.46it/s] 30%|██▉       | 869/2923 [00:00<00:00, 2765.58it/s] 40%|████      | 1179/2923 [00:00<00:00, 2855.67it/s] 50%|█████     | 1466/2923 [00:00<00:00, 2856.87it/s] 60%|██████    | 1766/2923 [00:00<00:00, 2898.22it/s] 70%|███████   | 2056/2923 [00:00<00:00, 2897.31it/s] 80%|███████▉  | 2327/2923 [00:00<00:00, 2817.92it/s] 89%|████████▉ | 2610/2923 [00:00<00:00, 2820.54it/s] 99%|█████████▊| 2883/2923 [00:01<00:00, 2766.88it/s]100%|██████████| 2923/2923 [00:01<00:00, 2861.10it/s]
Computing DONE
*******************************************************************************************************************************
STARTING calculation for obs:
Observation at point (5.936935, 45.212343), azimuth 320.0, elevation 20.0. Observed point at altitude 90.0, position (3.97589228963619, 46.795891166701296)
2923 bins to compute
  0%|          | 0/2923 [00:00<?, ?it/s] 12%|█▏        | 344/2923 [00:00<00:00, 3438.90it/s] 23%|██▎       | 685/2923 [00:00<00:00, 3428.37it/s] 35%|███▍      | 1016/2923 [00:00<00:00, 3389.24it/s] 46%|████▌     | 1343/2923 [00:00<00:00, 3350.43it/s] 57%|█████▋    | 1658/2923 [00:00<00:00, 3286.42it/s] 67%|██████▋   | 1973/2923 [00:00<00:00, 3241.91it/s] 78%|███████▊  | 2277/2923 [00:00<00:00, 3178.06it/s] 88%|████████▊ | 2572/2923 [00:00<00:00, 3105.91it/s] 98%|█████████▊| 2874/2923 [00:00<00:00, 3078.44it/s]100%|██████████| 2923/2923 [00:00<00:00, 3184.60it/s]
Computing DONE
*******************************************************************************************************************************
STARTING calculation for obs:
Observation at point (5.936935, 45.212343), azimuth 330.0, elevation 20.0. Observed point at altitude 90.0, position (4.405493460978925, 47.0111654448352)
2923 bins to compute
  0%|          | 0/2923 [00:00<?, ?it/s] 11%|█▏        | 335/2923 [00:00<00:00, 3349.30it/s] 23%|██▎       | 662/2923 [00:00<00:00, 3323.72it/s] 33%|███▎      | 978/2923 [00:00<00:00, 3271.34it/s] 44%|████▍     | 1292/2923 [00:00<00:00, 3229.73it/s] 54%|█████▍    | 1587/2923 [00:00<00:00, 3138.42it/s] 64%|██████▍   | 1869/2923 [00:00<00:00, 3034.87it/s] 74%|███████▎  | 2153/2923 [00:00<00:00, 2971.75it/s] 84%|████████▎ | 2444/2923 [00:00<00:00, 2951.70it/s] 93%|█████████▎| 2729/2923 [00:00<00:00, 2917.95it/s]100%|██████████| 2923/2923 [00:00<00:00, 3001.34it/s]
Computing DONE
*******************************************************************************************************************************
STARTING calculation for obs:
Observation at point (5.936935, 45.212343), azimuth 340.0, elevation 20.0. Observed point at altitude 90.0, position (4.886298041118915, 47.170338908814635)
2923 bins to compute
  0%|          | 0/2923 [00:00<?, ?it/s] 11%|█▏        | 332/2923 [00:00<00:00, 3310.93it/s] 23%|██▎       | 667/2923 [00:00<00:00, 3320.21it/s] 34%|███▍      | 1001/2923 [00:00<00:00, 3325.25it/s] 46%|████▌     | 1334/2923 [00:00<00:00, 3325.25it/s] 56%|█████▋    | 1649/2923 [00:00<00:00, 3270.35it/s] 66%|██████▌   | 1935/2923 [00:00<00:00, 3132.20it/s] 76%|███████▌  | 2212/2923 [00:00<00:00, 3012.15it/s] 86%|████████▋ | 2522/2923 [00:00<00:00, 3036.01it/s] 97%|█████████▋| 2825/2923 [00:00<00:00, 3031.94it/s]100%|██████████| 2923/2923 [00:00<00:00, 3124.20it/s]
Computing DONE
*******************************************************************************************************************************
STARTING calculation for obs:
Observation at point (5.936935, 45.212343), azimuth 350.0, elevation 20.0. Observed point at altitude 90.0, position (5.4025508407246345, 47.26805549481339)
2923 bins to compute
  0%|          | 0/2923 [00:00<?, ?it/s] 12%|█▏        | 358/2923 [00:00<00:00, 3572.19it/s] 24%|██▍       | 701/2923 [00:00<00:00, 3525.21it/s] 35%|███▍      | 1021/2923 [00:00<00:00, 3420.41it/s] 46%|████▌     | 1332/2923 [00:00<00:00, 3320.28it/s] 56%|█████▋    | 1648/2923 [00:00<00:00, 3267.57it/s] 67%|██████▋   | 1948/2923 [00:00<00:00, 3179.51it/s] 77%|███████▋  | 2247/2923 [00:00<00:00, 3117.97it/s] 87%|████████▋ | 2551/2923 [00:00<00:00, 3093.50it/s] 97%|█████████▋| 2841/2923 [00:00<00:00, 3004.14it/s]100%|██████████| 2923/2923 [00:00<00:00, 3125.89it/s]
Computing DONE
9.144467424991268e-08 8.848654171672158e-08
9.132363421886119e-08 8.766017165661026e-08
9.099810841653083e-08 8.522794517063268e-08
9.058211982043609e-08 8.133037726705908e-08
9.02701918233827e-08 7.620164137308374e-08
9.034539093044164e-08 7.017120376610722e-08
9.119355393946928e-08 6.366984134553937e-08
9.332758258684092e-08 5.72441860267061e-08
9.742850103823961e-08 5.158402866234738e-08
1.0441496388125554e-07 4.756454317549975e-08
1.1556208942107121e-07 4.630759446970399e-08
1.3270774052887896e-07 4.928648839395769e-08
1.5861635548177163e-07 5.8535397228523386e-08
1.9762336200824932e-07 7.705722690045611e-08
2.5672351714686226e-07 1.095349586236217e-07
3.4693546290528675e-07 1.6323737933147596e-07
4.816361352755142e-07 2.4699174146926814e-07
6.518898174358605e-07 3.5524155164328257e-07
7.485263110054812e-07 4.172593974847747e-07
6.518898174358748e-07 3.552415516432918e-07
4.816361352755279e-07 2.469917414692768e-07
3.469354629052959e-07 1.6323737933148141e-07
2.567235171468687e-07 1.0953495862362545e-07
1.9762336200825313e-07 7.705722690045788e-08
1.5861635548177443e-07 5.8535397228524445e-08
1.3270774052888066e-07 4.928648839395814e-08
1.1556208942107232e-07 4.6307594469703926e-08
1.0441496388125617e-07 4.7564543175499456e-08
9.742850103824006e-08 5.158402866234694e-08
9.332758258684111e-08 5.724418602670555e-08
9.119355393946928e-08 6.366984134553872e-08
9.034539093044169e-08 7.01712037661067e-08
9.027019182338265e-08 7.620164137308322e-08
9.058211982043605e-08 8.133037726705868e-08
9.09981084165308e-08 8.522794517063242e-08
9.132363421886116e-08 8.766017165661011e-08
[9.14446742e-08 9.13236342e-08 9.09981084e-08 9.05821198e-08
 9.02701918e-08 9.03453909e-08 9.11935539e-08 9.33275826e-08
 9.74285010e-08 1.04414964e-07 1.15562089e-07 1.32707741e-07
 1.58616355e-07 1.97623362e-07 2.56723517e-07 3.46935463e-07
 4.81636135e-07 6.51889817e-07 7.48526311e-07 6.51889817e-07
 4.81636135e-07 3.46935463e-07 2.56723517e-07 1.97623362e-07
 1.58616355e-07 1.32707741e-07 1.15562089e-07 1.04414964e-07
 9.74285010e-08 9.33275826e-08 9.11935539e-08 9.03453909e-08
 9.02701918e-08 9.05821198e-08 9.09981084e-08 9.13236342e-08]
ALL TIME SINCE START: 34.7062509059906
