Correct input file in use: systemic/systemic_azimuts180_elevations45_point_src_dist5_point_src_az180_resolution_along_los3.1202020202020204_RS_min_altitude0_RS_max_altitude100_wavelength391.4_emission_altitude90_max_angle_discretization1
Loading the sky emission cube...
Has_sky_emission: True
Has_ground_emission: False
lagorge 0.10361906322688955 0.7891042478910105
ALT MAP BOUNDS 5.037613394081269 6.836256605918731 44.31302139408126 46.111664605918726
0.01569612305760477
ALT MAP BOUNDS 5.036200993144891 6.8348442049823515 44.309575523615855 46.10821873545331
ALT MAP BOUNDS 5.036200993144891 6.8348442049823515 44.309575523615855 46.10821873545331
Initialization DONE
*******************************************************************************************************************************
STARTING calculation for obs:
Observation at point (5.936935, 45.212343), azimuth 180.0, elevation 45.0. Observed point at altitude 90.0, position (5.936935000000001, 44.4196935987303)
45.0 bins to compute
  0%|          | 0/45.0 [00:00<?, ?it/s] 58%|█████▊    | 26/45.0 [00:00<00:00, 209.54it/s] 73%|███████▎  | 33/45.0 [00:00<00:00, 39.38it/s]  84%|████████▍ | 38/45.0 [00:03<00:01,  5.36it/s] 89%|████████▉ | 40/45.0 [00:20<00:00,  5.36it/s] 91%|█████████ | 41/45.0 [00:35<00:13,  3.37s/it] 93%|█████████▎| 42/45.0 [00:49<00:19,  6.48s/it] 96%|█████████▌| 43/45.0 [00:53<00:11,  5.84s/it] 98%|█████████▊| 44/45.0 [00:55<00:04,  4.69s/it]100%|██████████| 45/45.0 [00:57<00:00,  3.65s/it]100%|██████████| 45/45.0 [00:57<00:00,  1.27s/it]
Computing DONE
opt_depth, direct:
0.5566973416535387 0
Making and NOT saving plots...
ALL TIME SINCE START: 57.75708794593811
