Correct input file in use: systemic/systemic_azimuts0_elevations90_point_src_dist1.2000000000000002_point_src_az0_resolution_along_los0.1_RS_min_altitude0_RS_max_altitude100_wavelength391.4_emission_altitude90_max_angle_discretization1
Has_sky_emission: False
AzDistToLonLat 0.0 1.2000000000000002 0.0 0.00018835347669125729 0.0 1.2000000000000002
Has_ground_emission: True
lagorge 0.10361906322688955 0.7891042478910105
ALT MAP BOUNDS 5.037613394081269 6.836256605918731 44.31302139408126 46.111664605918726
0.01569612305760477
ALT MAP BOUNDS 5.036200993144891 6.8348442049823515 44.309575523615855 46.10821873545331
ALT MAP BOUNDS 5.036200993144891 6.8348442049823515 44.309575523615855 46.10821873545331
Initialization DONE
*******************************************************************************************************************************
STARTING calculation for obs:
Observation at point (5.936935, 45.212343), azimuth 0.0, elevation 90.0. Observed point at altitude 90.0, position (5.936935000000001, 45.212343000000004)
999 bins to compute
  0%|          | 0/999 [00:00<?, ?it/s]  7%|▋         | 66/999 [00:00<00:01, 650.06it/s] 13%|█▎        | 129/999 [00:00<00:01, 642.50it/s] 25%|██▍       | 249/999 [00:00<00:01, 746.44it/s] 61%|██████    | 605/999 [00:00<00:00, 978.23it/s] 93%|█████████▎| 929/999 [00:00<00:00, 1237.24it/s]100%|██████████| 999/999 [00:00<00:00, 1904.55it/s]
Computing DONE
7.312533013671322e-07 6.427724871587178e-07
Making and NOT saving plots...
ALL TIME SINCE START: 1.2891430854797363
