Correct input file in use: systemic/systemic_azimuts169_elevations45
All input parameter from the input file:
path: /home/bossel/These/Analysis/data/Night_pollution/
src_path: /home/bossel/These/Analysis/src/rayleigh/
saving_graphs: 0
save_path: /home/bossel/These/Analysis/results/rayleigh/skibotn/pointing_test/
save_name: print_ground_map
flux_unit: W
use_analytic: false
azimuts: 169
elevations: 45
location: skibotn
start_datetime: 20190116-02:44:00
end_datetime: 20190116-04:00:00
instrument_opening_angle: 1
instrument_area: 20
wavelength: 391.4
cst_Flux: 0
cst_DoLP: 0
cst_AoLP: 0
add_starlight: 0
RS_min_altitude: 0
RS_max_altitude: 100
Nb_points_along_los: 100
resolution_along_los: 0.5
max_angle_discretization: 0
Atmospheric_profile: atm_profiles/win.atm
sky_mode: image
emission_altitude: 110
Nb_emission_points: 1000
Nb_emission_maps: 1
I_zone_a_min: 0
I_zone_a_max: 360
I_zone_e_min: 0
I_zone_e_max: 90
sky_path: /home/bossel/These/Analysis/data/allsky_camera/tid.uio.no/plasma/aurora/
sky_file: skn4/5577/2019/20190307/ut20/skn4_20190307_204908_5577_cal.png
sky_wavelength: 557.7
use_alt_map: 1
alt_map_path: /home/bossel/These/Analysis/data/elevation/
alt_map_radius: 100
alt_map_N_bins_max: 10000
alt_map_resolution: 0.2
ground_mode: uniform_I0
shader_mode: none
ground_emission_radius: 50
ground_N_bins_max: 1000
ground_albedo: altitude_0.2_0.5_0.5_1_0.8
ground_path: /home/bossel/These/Analysis/data/Night_pollution/
ground_file: nighttime_light_files/SVDNB_npp_20160101-20161231_75N060W_vcm-orm_v10_c201807311200.avg_rade9.tif
Loading the sky emission cube...
Importing all sky image data from: /home/bossel/These/Analysis/data/allsky_camera/tid.uio.no/plasma/aurora/skn4/5577/2019/20190307/ut20/skn4_20190307_204908_5577_cal.png
Sky cube loaded!
Has_sky_emission: True
Has_ground_emission: True
ALT MAP RESOLUTION lon, lat 8.900840025859005e-05 3.1392246115209545e-05
ALT MAP RESOLUTION lon, lat 0.0008900840025859002 0.0003139224611520941
WARNING: Elevation tile not found: /home/bossel/These/Analysis/data/elevation/N070E015_N075E020/ALPSMLC30_N070E017_DSM.tif
WARNING: Elevation tile not found: /home/bossel/These/Analysis/data/elevation/N070E015_N075E020/ALPSMLC30_N070E018_DSM.tif
WARNING: Elevation tile not found: /home/bossel/These/Analysis/data/elevation/N070E015_N075E020/ALPSMLC30_N070E019_DSM.tif
layers, albedo [0.5, 1.0] [0.2, 0.5, 0.8]
Calculating sky on ground reflection with albedo altitude_0.2_0.5_0.5_1_0.8
Initialization DONE
*******************************************************************************************************************************
Starting calculation for SKY map 1/1:
Observation at point (20.363641, 69.348151), azimuth 169.0, elevation 45.0. Observed point at altitude 110.0, position (20.863509876893524, 68.4007291742692)
Starting time:  11:45:35
100000.0 bins to compute per processor
Computing DONE in:  0:00:36.658850
Stacking processor results...
*******************************************************************************************************************************
STARTING calculation for GROUND map 1/1:
Observation at point (20.363641, 69.348151), azimuth 169.0, elevation 45.0. Observed point at altitude 110.0, position (20.863509876893524, 68.4007291742692)
Starting time:  11:46:12
96100.0 bins to compute per processor
Computing DONE in:  0:01:36.363186
Stacking processor results...
opt_depth, direct:
0.5566981471706768 1.1209698441789263e-11
Making and NOT saving plots...
/home/bossel/These/Analysis/src/rayleigh/world.py:924: RuntimeWarning: More than 20 figures have been opened. Figures created through the pyplot interface (`matplotlib.pyplot.figure`) are retained until explicitly closed and may consume too much memory. (To control this warning, see the rcParam `figure.max_open_warning`).
  f3, ax = plt.subplots(1, figsize=(16, 8))
Print results in log/systematic_pointing.csv
Simulation ran in: 0:02:59.219148
