Correct input file in use: systemic/systemic_azimutsall_elevations45_Nb_points_along_los1_RS_min_altitude7_RS_max_altitude8_use_analyticfalse_ground_modepoint_I100_a180_d5
All input parameter from the input file:
path: /home/bossel/These/Analysis/data/Night_pollution/
src_path: /home/bossel/These/Analysis/src/rayleigh/
saving_graphs: 0
flux_unit: W
use_analytic: false
azimuts: all
elevations: 45
location: skibotn
instrument_opening_angle: 1
instrument_area: 20
wavelength: 391.4
RS_min_altitude: 7
RS_max_altitude: 8
resolution_along_los: 1
Nb_points_along_los: 1
max_angle_discretization: 0
Atmospheric_profile: atm_profiles/ngt.atm
sky_mode: none
emission_altitude: 110
Nb_emission_points: 100
Nb_emission_maps: 1
I_zone_a_min: 0
I_zone_a_max: 360
I_zone_e_min: 0
I_zone_e_max: 90
sky_path: /home/bossel/These/Analysis/data/allsky_camera/tid.uio.no/plasma/aurora/
sky_file: skn4/5577/2019/20190307/ut20/
sky_wavelength: 557.7
use_alt_map: 0
alt_map_path: /home/bossel/These/Analysis/data/elevation/
alt_map_radius: 30
alt_map_N_bins_max: 10000
alt_map_resolution: 0.2
ground_mode: point_I100_a180_d5
shader_mode: none
ground_emission_radius: 30
ground_N_bins_max: 100
ground_albedo: altitude
ground_path: /home/bossel/These/Analysis/data/Night_pollution/
ground_file: nighttime_light_files/SVDNB_npp_20160101-20161231_75N060W_vcm-orm_v10_c201807311200.avg_rade9.tif
Has_sky_emission: False
Has_ground_emission: True
Initialization DONE
*******************************************************************************************************************************
STARTING calculation for GROUND map 1/36:
Observation at point (20.363641, 69.348151), azimuth 0.0, elevation 45.0. Observed point at altitude 110.0, position (20.363640999999998, 70.31254209541123)
Starting time:  15:21:27
1.0 bins to compute per processor
dvol 0.15229813222497646
Computing DONE in:  0:00:00.000428
*******************************************************************************************************************************
STARTING calculation for GROUND map 2/36:
Observation at point (20.363641, 69.348151), azimuth 10.0, elevation 45.0. Observed point at altitude 110.0, position (20.86034385403887, 70.29721017027023)
Starting time:  15:21:27
1.0 bins to compute per processor
dvol 0.15229813222497646
Computing DONE in:  0:00:00.000377
*******************************************************************************************************************************
STARTING calculation for GROUND map 3/36:
Observation at point (20.363641, 69.348151), azimuth 20.0, elevation 45.0. Observed point at altitude 110.0, position (21.339827055393656, 70.25174762092317)
Starting time:  15:21:27
1.0 bins to compute per processor
dvol 0.15229813222497646
Computing DONE in:  0:00:00.000373
*******************************************************************************************************************************
STARTING calculation for GROUND map 4/36:
Observation at point (20.363641, 69.348151), azimuth 29.999999999999996, elevation 45.0. Observed point at altitude 110.0, position (21.785690917534886, 70.17772832091121)
Starting time:  15:21:27
1.0 bins to compute per processor
dvol 0.15229813222497646
Computing DONE in:  0:00:00.000397
*******************************************************************************************************************************
STARTING calculation for GROUND map 5/36:
Observation at point (20.363641, 69.348151), azimuth 40.0, elevation 45.0. Observed point at altitude 110.0, position (22.18310255944999, 70.07769178504623)
Starting time:  15:21:27
1.0 bins to compute per processor
dvol 0.15229813222497646
Computing DONE in:  0:00:00.000375
*******************************************************************************************************************************
STARTING calculation for GROUND map 6/36:
Observation at point (20.363641, 69.348151), azimuth 50.0, elevation 45.0. Observed point at altitude 110.0, position (22.519408749763613, 69.95502575342036)
Starting time:  15:21:27
1.0 bins to compute per processor
dvol 0.15229813222497646
Computing DONE in:  0:00:00.000372
*******************************************************************************************************************************
STARTING calculation for GROUND map 7/36:
Observation at point (20.363641, 69.348151), azimuth 59.99999999999999, elevation 45.0. Observed point at altitude 110.0, position (22.78457517871535, 69.8138163678588)
Starting time:  15:21:27
1.0 bins to compute per processor
dvol 0.15229813222497646
Computing DONE in:  0:00:00.000379
*******************************************************************************************************************************
STARTING calculation for GROUND map 8/36:
Observation at point (20.363641, 69.348151), azimuth 70.0, elevation 45.0. Observed point at altitude 110.0, position (22.97143765564028, 69.65867755697063)
Starting time:  15:21:27
1.0 bins to compute per processor
dvol 0.15229813222497646
Computing DONE in:  0:00:00.000767
*******************************************************************************************************************************
STARTING calculation for GROUND map 9/36:
Observation at point (20.363641, 69.348151), azimuth 80.0, elevation 45.0. Observed point at altitude 110.0, position (23.07577411994994, 69.49457123309257)
Starting time:  15:21:27
1.0 bins to compute per processor
dvol 0.15229813222497646
Computing DONE in:  0:00:00.000814
*******************************************************************************************************************************
STARTING calculation for GROUND map 10/36:
Observation at point (20.363641, 69.348151), azimuth 90.0, elevation 45.0. Observed point at altitude 110.0, position (23.096223976486375, 69.32662857005603)
Starting time:  15:21:27
1.0 bins to compute per processor
dvol 0.15229813222497646
Computing DONE in:  0:00:00.000826
*******************************************************************************************************************************
STARTING calculation for GROUND map 11/36:
Observation at point (20.363641, 69.348151), azimuth 100.0, elevation 45.0. Observed point at altitude 110.0, position (23.034091235470655, 69.15998047052237)
Starting time:  15:21:27
1.0 bins to compute per processor
dvol 0.15229813222497646
Computing DONE in:  0:00:00.000393
*******************************************************************************************************************************
STARTING calculation for GROUND map 12/36:
Observation at point (20.363641, 69.348151), azimuth 110.0, elevation 45.0. Observed point at altitude 110.0, position (22.893070482929605, 68.99960286908345)
Starting time:  15:21:27
1.0 bins to compute per processor
dvol 0.15229813222497646
Computing DONE in:  0:00:00.000756
*******************************************************************************************************************************
STARTING calculation for GROUND map 13/36:
Observation at point (20.363641, 69.348151), azimuth 119.99999999999999, elevation 45.0. Observed point at altitude 110.0, position (22.678931488768246, 68.85018018060431)
Starting time:  15:21:27
1.0 bins to compute per processor
dvol 0.15229813222497646
Computing DONE in:  0:00:00.000761
*******************************************************************************************************************************
STARTING calculation for GROUND map 14/36:
Observation at point (20.363641, 69.348151), azimuth 130.0, elevation 45.0. Observed point at altitude 110.0, position (22.399191503723667, 68.71598826650627)
Starting time:  15:21:27
1.0 bins to compute per processor
dvol 0.15229813222497646
Computing DONE in:  0:00:00.000844
*******************************************************************************************************************************
STARTING calculation for GROUND map 15/36:
Observation at point (20.363641, 69.348151), azimuth 140.0, elevation 45.0. Observed point at altitude 110.0, position (22.062796098303526, 68.6007968743641)
Starting time:  15:21:27
1.0 bins to compute per processor
dvol 0.15229813222497646
Computing DONE in:  0:00:00.000422
*******************************************************************************************************************************
STARTING calculation for GROUND map 16/36:
Observation at point (20.363641, 69.348151), azimuth 150.0, elevation 45.0. Observed point at altitude 110.0, position (21.679821326555917, 68.50779060852261)
Starting time:  15:21:27
1.0 bins to compute per processor
dvol 0.15229813222497646
Computing DONE in:  0:00:00.000407
*******************************************************************************************************************************
STARTING calculation for GROUND map 17/36:
Observation at point (20.363641, 69.348151), azimuth 160.0, elevation 45.0. Observed point at altitude 110.0, position (21.261202996719906, 68.4395070395179)
Starting time:  15:21:27
1.0 bins to compute per processor
dvol 0.15229813222497646
Computing DONE in:  0:00:00.000397
*******************************************************************************************************************************
STARTING calculation for GROUND map 18/36:
Observation at point (20.363641, 69.348151), azimuth 170.0, elevation 45.0. Observed point at altitude 110.0, position (20.818493298703018, 68.39779045618862)
Starting time:  15:21:27
1.0 bins to compute per processor
dvol 0.15229813222497646
Computing DONE in:  0:00:00.000381
*******************************************************************************************************************************
STARTING calculation for GROUND map 19/36:
Observation at point (20.363641, 69.348151), azimuth 180.0, elevation 45.0. Observed point at altitude 110.0, position (20.363640999999998, 68.38375990458876)
Starting time:  15:21:27
1.0 bins to compute per processor
dvol 0.15229813222497646
Computing DONE in:  0:00:00.000376
*******************************************************************************************************************************
STARTING calculation for GROUND map 20/36:
Observation at point (20.363641, 69.348151), azimuth 190.0, elevation 45.0. Observed point at altitude 110.0, position (19.908788701296977, 68.39779045618862)
Starting time:  15:21:27
1.0 bins to compute per processor
dvol 0.15229813222497646
Computing DONE in:  0:00:00.000424
*******************************************************************************************************************************
STARTING calculation for GROUND map 21/36:
Observation at point (20.363641, 69.348151), azimuth 200.0, elevation 45.0. Observed point at altitude 110.0, position (19.46607900328009, 68.4395070395179)
Starting time:  15:21:27
1.0 bins to compute per processor
dvol 0.15229813222497646
Computing DONE in:  0:00:00.000390
*******************************************************************************************************************************
STARTING calculation for GROUND map 22/36:
Observation at point (20.363641, 69.348151), azimuth 210.00000000000003, elevation 45.0. Observed point at altitude 110.0, position (19.047460673444075, 68.50779060852261)
Starting time:  15:21:27
1.0 bins to compute per processor
dvol 0.15229813222497646
Computing DONE in:  0:00:00.000386
*******************************************************************************************************************************
STARTING calculation for GROUND map 23/36:
Observation at point (20.363641, 69.348151), azimuth 220.0, elevation 45.0. Observed point at altitude 110.0, position (18.66448590169647, 68.6007968743641)
Starting time:  15:21:27
1.0 bins to compute per processor
dvol 0.15229813222497646
Computing DONE in:  0:00:00.000396
*******************************************************************************************************************************
STARTING calculation for GROUND map 24/36:
Observation at point (20.363641, 69.348151), azimuth 230.0, elevation 45.0. Observed point at altitude 110.0, position (18.32809049627633, 68.71598826650627)
Starting time:  15:21:27
1.0 bins to compute per processor
dvol 0.15229813222497646
Computing DONE in:  0:00:00.000374
*******************************************************************************************************************************
STARTING calculation for GROUND map 25/36:
Observation at point (20.363641, 69.348151), azimuth 239.99999999999997, elevation 45.0. Observed point at altitude 110.0, position (18.04835051123175, 68.85018018060431)
Starting time:  15:21:27
1.0 bins to compute per processor
dvol 0.15229813222497646
Computing DONE in:  0:00:00.000767
*******************************************************************************************************************************
STARTING calculation for GROUND map 26/36:
Observation at point (20.363641, 69.348151), azimuth 250.00000000000003, elevation 45.0. Observed point at altitude 110.0, position (17.834211517070393, 68.99960286908345)
Starting time:  15:21:27
1.0 bins to compute per processor
dvol 0.15229813222497646
Computing DONE in:  0:00:00.000530
*******************************************************************************************************************************
STARTING calculation for GROUND map 27/36:
Observation at point (20.363641, 69.348151), azimuth 260.0, elevation 45.0. Observed point at altitude 110.0, position (17.69319076452934, 69.15998047052237)
Starting time:  15:21:27
1.0 bins to compute per processor
dvol 0.15229813222497646
Computing DONE in:  0:00:00.000366
*******************************************************************************************************************************
STARTING calculation for GROUND map 28/36:
Observation at point (20.363641, 69.348151), azimuth 270.0, elevation 45.0. Observed point at altitude 110.0, position (17.63105802351362, 69.32662857005603)
Starting time:  15:21:27
1.0 bins to compute per processor
dvol 0.15229813222497646
Computing DONE in:  0:00:00.000365
*******************************************************************************************************************************
STARTING calculation for GROUND map 29/36:
Observation at point (20.363641, 69.348151), azimuth 280.0, elevation 45.0. Observed point at altitude 110.0, position (17.651507880050055, 69.49457123309257)
Starting time:  15:21:27
1.0 bins to compute per processor
dvol 0.15229813222497646
Computing DONE in:  0:00:00.000380
*******************************************************************************************************************************
STARTING calculation for GROUND map 30/36:
Observation at point (20.363641, 69.348151), azimuth 290.0, elevation 45.0. Observed point at altitude 110.0, position (17.755844344359716, 69.65867755697063)
Starting time:  15:21:27
1.0 bins to compute per processor
dvol 0.15229813222497646
Computing DONE in:  0:00:00.000361
*******************************************************************************************************************************
STARTING calculation for GROUND map 31/36:
Observation at point (20.363641, 69.348151), azimuth 300.0, elevation 45.0. Observed point at altitude 110.0, position (17.94270682128465, 69.8138163678588)
Starting time:  15:21:27
1.0 bins to compute per processor
dvol 0.15229813222497646
Computing DONE in:  0:00:00.000359
*******************************************************************************************************************************
STARTING calculation for GROUND map 32/36:
Observation at point (20.363641, 69.348151), azimuth 310.0, elevation 45.0. Observed point at altitude 110.0, position (18.20787325023638, 69.95502575342036)
Starting time:  15:21:27
1.0 bins to compute per processor
dvol 0.15229813222497646
Computing DONE in:  0:00:00.000384
*******************************************************************************************************************************
STARTING calculation for GROUND map 33/36:
Observation at point (20.363641, 69.348151), azimuth 320.0, elevation 45.0. Observed point at altitude 110.0, position (18.544179440550003, 70.07769178504623)
Starting time:  15:21:27
1.0 bins to compute per processor
dvol 0.15229813222497646
Computing DONE in:  0:00:00.000361
*******************************************************************************************************************************
STARTING calculation for GROUND map 34/36:
Observation at point (20.363641, 69.348151), azimuth 330.0, elevation 45.0. Observed point at altitude 110.0, position (18.94159108246511, 70.17772832091121)
Starting time:  15:21:27
1.0 bins to compute per processor
dvol 0.15229813222497646
Computing DONE in:  0:00:00.000414
*******************************************************************************************************************************
STARTING calculation for GROUND map 35/36:
Observation at point (20.363641, 69.348151), azimuth 340.0, elevation 45.0. Observed point at altitude 110.0, position (19.387454944606343, 70.25174762092317)
Starting time:  15:21:27
1.0 bins to compute per processor
dvol 0.15229813222497646
Computing DONE in:  0:00:00.000352
*******************************************************************************************************************************
STARTING calculation for GROUND map 36/36:
Observation at point (20.363641, 69.348151), azimuth 350.0, elevation 45.0. Observed point at altitude 110.0, position (19.866938145961125, 70.29721017027023)
Starting time:  15:21:27
1.0 bins to compute per processor
dvol 0.15229813222497646
Computing DONE in:  0:00:00.000367
Print results in log/systematic_ptsrc_atmosphere.csv
Simulation ran in: 0:00:00.104533
