Correct input file in use: systemic/systemic_azimutsall_elevations45_ground_N_bins_max100
All input parameter from the input file:
path: /home/bossel/These/Analysis/data/Night_pollution/
src_path: /home/bossel/These/Analysis/src/rayleigh/
saving_graphs: 0
save_path: /home/bossel/These/Documentation/Mes_articles/auroral_pola/sky_only/
save_name: 20190307_m_sky_only_aero_1low_albedo
flux_unit: W
use_analytic: true
azimuts: all
elevations: 45
location: skibotn
start_datetime: 20190116-02:44:00
end_datetime: 20190116-04:00:00
instrument_opening_angle: 1
instrument_area: 20
wavelength: 557.7
cst_Flux: 0
cst_DoLP: 0
cst_AoLP: 0
add_starlight: 0
add_B_pola: 0
RS_min_altitude: 0
RS_max_altitude: 100
Nb_points_along_los: 100
resolution_along_los: 0.5
max_angle_discretization: 0
Atmospheric_profile: atm_profiles/mlw.atm
use_ozone: 1
use_aerosol: 0
aer_complexity: 0
aer_model: maritime
aer_name: maritime_test
aer_nr: 1.6
aer_ni: -0.010
aer_rn0: 1
aer_rmg: 0.001
aer_ln_sigma: 0.657
aer_r_min: 0.001
aer_r_max: 50
aer_Hn: 0.440
aer_n0: 300
aer_nBK: 30
aer_ext_profile_name: mar
aer_single_scatter_albedo: 0.9
aer_phase_fct_asym_g: 0.7
sky_mode: none
direct_mode: only
emission_altitude: 110
Nb_emission_points: 1000
Nb_emission_maps: 1
I_zone_a_min: 0
I_zone_a_max: 360
I_zone_e_min: 0
I_zone_e_max: 90
sky_path: /home/bossel/These/Analysis/data/allsky_camera/tid.uio.no/plasma/aurora/
sky_file: skn4/5577/2019/20190308/ut01/skn4_20190308_012908_5577_cal.png
sky_wavelength: 557.7
use_alt_map: 0
alt_map_path: /home/bossel/These/Analysis/data/elevation/
alt_map_radius: 100
alt_map_N_bins_max: 0
alt_map_resolution: 0.5
ground_mode: uniform_I100
shader_mode: none
ground_emission_radius: 50
ground_N_bins_max: 100
ground_albedo: altitude_0.2_0.2_0.5_0.5_0.8
ground_path: /home/bossel/These/Analysis/data/Night_pollution/
ground_file: nighttime_light_files/SVDNB_npp_20160101-20161231_75N060W_vcm-orm-ntl_v10_c201807311200.avg_rade9.tif
Using simple WMO aerosol profile: mar
DEBUG AEROSOL Optical Depth (0-120km) 0
DEBUG AEROSOL Optical Depth (0-120km) 0
DEBUG ATMOSPHERE TOTAL OD (0-120km): 0.13277515692702085
Has_sky_emission: False
Has_ground_emission: True
ALT MAP RESOLUTION lon, lat 0.5 1.417681295118693 0.49999999999999994
WARNING: Elevation tile not found: /home/bossel/These/Analysis/data/elevation/N070E015_N075E020/ALPSMLC30_N070E017_DSM.tif
WARNING: Elevation tile not found: /home/bossel/These/Analysis/data/elevation/N070E015_N075E020/ALPSMLC30_N070E018_DSM.tif
WARNING: Elevation tile not found: /home/bossel/These/Analysis/data/elevation/N070E015_N075E020/ALPSMLC30_N070E019_DSM.tif
Initialization DONE
*******************************************************************************************************************************
STARTING calculation for GROUND map 1/36:
Observation at point (20.363641, 69.348151), azimuth 0.0, elevation 45.0. Observed point at altitude 110.0, position (20.363641, 70.312542338884)
Starting time:  14:34:27
10000.0 bins to compute per processor
/home/bossel/These/Analysis/src/rayleigh/world.py:582: IntegrationWarning: The integral is probably divergent, or slowly convergent.
  F = integrate.quad(dF, min_range, max_range)#, points=[0])
/home/bossel/These/Analysis/src/rayleigh/world.py:583: IntegrationWarning: The integral is probably divergent, or slowly convergent.
  Fpola = integrate.quad(dFpola, min_range, max_range)#, points=[0])
Computing DONE in:  0:00:01.651861
*******************************************************************************************************************************
STARTING calculation for GROUND map 2/36:
Observation at point (20.363641, 69.348151), azimuth 10.0, elevation 45.0. Observed point at altitude 110.0, position (20.86034398522521, 70.29721040969213)
Starting time:  14:34:29
10000.0 bins to compute per processor
Computing DONE in:  0:00:01.753520
*******************************************************************************************************************************
STARTING calculation for GROUND map 3/36:
Observation at point (20.363641, 69.348151), azimuth 20.0, elevation 45.0. Observed point at altitude 110.0, position (21.33982731263922, 70.25174784835198)
Starting time:  14:34:31
10000.0 bins to compute per processor
Computing DONE in:  0:00:01.641971
*******************************************************************************************************************************
STARTING calculation for GROUND map 4/36:
Observation at point (20.363641, 69.348151), azimuth 29.999999999999996, elevation 45.0. Observed point at altitude 110.0, position (21.785691290911323, 70.17772852887288)
Starting time:  14:34:32
10000.0 bins to compute per processor
Computing DONE in:  0:00:01.622886
*******************************************************************************************************************************
STARTING calculation for GROUND map 5/36:
Observation at point (20.363641, 69.348151), azimuth 40.0, elevation 45.0. Observed point at altitude 110.0, position (22.1831030348385, 70.07769196681349)
Starting time:  14:34:34
10000.0 bins to compute per processor
Computing DONE in:  0:00:01.896433
*******************************************************************************************************************************
STARTING calculation for GROUND map 6/36:
Observation at point (20.363641, 69.348151), azimuth 50.0, elevation 45.0. Observed point at altitude 110.0, position (22.519409309677748, 69.95502590324585)
Starting time:  14:34:36
10000.0 bins to compute per processor
Computing DONE in:  0:00:01.560313
*******************************************************************************************************************************
STARTING calculation for GROUND map 7/36:
Observation at point (20.363641, 69.348151), azimuth 59.99999999999999, elevation 45.0. Observed point at altitude 110.0, position (22.784575803245286, 69.81381648115224)
Starting time:  14:34:38
10000.0 bins to compute per processor
Computing DONE in:  0:00:01.560864
*******************************************************************************************************************************
STARTING calculation for GROUND map 8/36:
Observation at point (20.363641, 69.348151), azimuth 70.0, elevation 45.0. Observed point at altitude 110.0, position (22.971438323427524, 69.65867763041624)
Starting time:  14:34:39
10000.0 bins to compute per processor
Computing DONE in:  0:00:01.573254
*******************************************************************************************************************************
STARTING calculation for GROUND map 9/36:
Observation at point (20.363641, 69.348151), azimuth 80.0, elevation 45.0. Observed point at altitude 110.0, position (23.075774809113888, 69.49457126470726)
Starting time:  14:34:41
10000.0 bins to compute per processor
Computing DONE in:  0:00:01.604671
*******************************************************************************************************************************
STARTING calculation for GROUND map 10/36:
Observation at point (20.363641, 69.348151), azimuth 90.0, elevation 45.0. Observed point at altitude 110.0, position (23.096224665446062, 69.32662855919448)
Starting time:  14:34:42
10000.0 bins to compute per processor
Computing DONE in:  0:00:01.672507
*******************************************************************************************************************************
STARTING calculation for GROUND map 11/36:
Observation at point (20.363641, 69.348151), azimuth 100.0, elevation 45.0. Observed point at altitude 110.0, position (23.034091903629033, 69.15998041783618)
Starting time:  14:34:44
10000.0 bins to compute per processor
Computing DONE in:  0:00:01.560229
*******************************************************************************************************************************
STARTING calculation for GROUND map 12/36:
Observation at point (20.363641, 69.348151), azimuth 110.0, elevation 45.0. Observed point at altitude 110.0, position (22.89307111121009, 68.99960277644377)
Starting time:  14:34:46
10000.0 bins to compute per processor
Computing DONE in:  0:00:01.784374
*******************************************************************************************************************************
STARTING calculation for GROUND map 13/36:
Observation at point (20.363641, 69.348151), azimuth 119.99999999999999, elevation 45.0. Observed point at altitude 110.0, position (22.678932060010517, 68.85018005099653)
Starting time:  14:34:47
10000.0 bins to compute per processor
Computing DONE in:  0:00:02.702831
*******************************************************************************************************************************
STARTING calculation for GROUND map 14/36:
Observation at point (20.363641, 69.348151), azimuth 130.0, elevation 45.0. Observed point at altitude 110.0, position (22.39919200295687, 68.71598810390466)
Starting time:  14:34:50
10000.0 bins to compute per processor
Computing DONE in:  0:00:01.669459
*******************************************************************************************************************************
STARTING calculation for GROUND map 15/36:
Observation at point (20.363641, 69.348151), azimuth 140.0, elevation 45.0. Observed point at altitude 110.0, position (22.062796512921025, 68.60079668359285)
Starting time:  14:34:52
10000.0 bins to compute per processor
Computing DONE in:  0:00:01.539562
*******************************************************************************************************************************
STARTING calculation for GROUND map 16/36:
Observation at point (20.363641, 69.348151), azimuth 150.0, elevation 45.0. Observed point at altitude 110.0, position (21.679821646416546, 68.5077903951081)
Starting time:  14:34:53
10000.0 bins to compute per processor
Computing DONE in:  0:00:01.862261
*******************************************************************************************************************************
STARTING calculation for GROUND map 17/36:
Observation at point (20.363641, 69.348151), azimuth 160.0, elevation 45.0. Observed point at altitude 110.0, position (21.261203214199295, 68.43950680953581)
Starting time:  14:34:55
10000.0 bins to compute per processor
Computing DONE in:  0:00:02.396404
*******************************************************************************************************************************
STARTING calculation for GROUND map 18/36:
Observation at point (20.363641, 69.348151), azimuth 170.0, elevation 45.0. Observed point at altitude 110.0, position (20.818493408714456, 68.39779021610825)
Starting time:  14:34:58
10000.0 bins to compute per processor
Computing DONE in:  0:00:01.893454
*******************************************************************************************************************************
STARTING calculation for GROUND map 19/36:
Observation at point (20.363641, 69.348151), azimuth 180.0, elevation 45.0. Observed point at altitude 110.0, position (20.363641, 68.383759661116)
Starting time:  14:34:59
10000.0 bins to compute per processor
Computing DONE in:  0:00:01.716567
*******************************************************************************************************************************
STARTING calculation for GROUND map 20/36:
Observation at point (20.363641, 69.348151), azimuth 190.0, elevation 45.0. Observed point at altitude 110.0, position (19.908788591285543, 68.39779021610826)
Starting time:  14:35:01
10000.0 bins to compute per processor
Computing DONE in:  0:00:01.691573
*******************************************************************************************************************************
STARTING calculation for GROUND map 21/36:
Observation at point (20.363641, 69.348151), azimuth 200.0, elevation 45.0. Observed point at altitude 110.0, position (19.466078785800704, 68.43950680953581)
Starting time:  14:35:03
10000.0 bins to compute per processor
Computing DONE in:  0:00:01.623776
*******************************************************************************************************************************
STARTING calculation for GROUND map 22/36:
Observation at point (20.363641, 69.348151), azimuth 210.00000000000003, elevation 45.0. Observed point at altitude 110.0, position (19.047460353583453, 68.5077903951081)
Starting time:  14:35:04
10000.0 bins to compute per processor
Computing DONE in:  0:00:01.629731
*******************************************************************************************************************************
STARTING calculation for GROUND map 23/36:
Observation at point (20.363641, 69.348151), azimuth 220.0, elevation 45.0. Observed point at altitude 110.0, position (18.664485487078977, 68.60079668359285)
Starting time:  14:35:06
10000.0 bins to compute per processor
Computing DONE in:  0:00:01.654052
*******************************************************************************************************************************
STARTING calculation for GROUND map 24/36:
Observation at point (20.363641, 69.348151), azimuth 230.0, elevation 45.0. Observed point at altitude 110.0, position (18.32808999704313, 68.71598810390466)
Starting time:  14:35:08
10000.0 bins to compute per processor
Computing DONE in:  0:00:01.619778
*******************************************************************************************************************************
STARTING calculation for GROUND map 25/36:
Observation at point (20.363641, 69.348151), azimuth 239.99999999999997, elevation 45.0. Observed point at altitude 110.0, position (18.048349939989485, 68.85018005099653)
Starting time:  14:35:09
10000.0 bins to compute per processor
Computing DONE in:  0:00:01.764083
*******************************************************************************************************************************
STARTING calculation for GROUND map 26/36:
Observation at point (20.363641, 69.348151), azimuth 250.00000000000003, elevation 45.0. Observed point at altitude 110.0, position (17.834210888789904, 68.99960277644377)
Starting time:  14:35:11
10000.0 bins to compute per processor
Computing DONE in:  0:00:01.521128
*******************************************************************************************************************************
STARTING calculation for GROUND map 27/36:
Observation at point (20.363641, 69.348151), azimuth 260.0, elevation 45.0. Observed point at altitude 110.0, position (17.69319009637097, 69.15998041783618)
Starting time:  14:35:13
10000.0 bins to compute per processor
Computing DONE in:  0:00:01.535855
*******************************************************************************************************************************
STARTING calculation for GROUND map 28/36:
Observation at point (20.363641, 69.348151), azimuth 270.0, elevation 45.0. Observed point at altitude 110.0, position (17.63105733455394, 69.32662855919448)
Starting time:  14:35:14
10000.0 bins to compute per processor
Computing DONE in:  0:00:01.560772
*******************************************************************************************************************************
STARTING calculation for GROUND map 29/36:
Observation at point (20.363641, 69.348151), azimuth 280.0, elevation 45.0. Observed point at altitude 110.0, position (17.65150719088611, 69.49457126470726)
Starting time:  14:35:16
10000.0 bins to compute per processor
Computing DONE in:  0:00:01.739472
*******************************************************************************************************************************
STARTING calculation for GROUND map 30/36:
Observation at point (20.363641, 69.348151), azimuth 290.0, elevation 45.0. Observed point at altitude 110.0, position (17.755843676572475, 69.65867763041622)
Starting time:  14:35:18
10000.0 bins to compute per processor
Computing DONE in:  0:00:02.338856
*******************************************************************************************************************************
STARTING calculation for GROUND map 31/36:
Observation at point (20.363641, 69.348151), azimuth 300.0, elevation 45.0. Observed point at altitude 110.0, position (17.942706196754717, 69.81381648115224)
Starting time:  14:35:20
10000.0 bins to compute per processor
Computing DONE in:  0:00:01.616476
*******************************************************************************************************************************
STARTING calculation for GROUND map 32/36:
Observation at point (20.363641, 69.348151), azimuth 310.0, elevation 45.0. Observed point at altitude 110.0, position (18.207872690322255, 69.95502590324585)
Starting time:  14:35:22
10000.0 bins to compute per processor
Computing DONE in:  0:00:01.567298
*******************************************************************************************************************************
STARTING calculation for GROUND map 33/36:
Observation at point (20.363641, 69.348151), azimuth 320.0, elevation 45.0. Observed point at altitude 110.0, position (18.544178965161493, 70.07769196681349)
Starting time:  14:35:23
10000.0 bins to compute per processor
Computing DONE in:  0:00:01.530262
*******************************************************************************************************************************
STARTING calculation for GROUND map 34/36:
Observation at point (20.363641, 69.348151), azimuth 330.0, elevation 45.0. Observed point at altitude 110.0, position (18.941590709088675, 70.17772852887288)
Starting time:  14:35:25
10000.0 bins to compute per processor
Computing DONE in:  0:00:01.478795
*******************************************************************************************************************************
STARTING calculation for GROUND map 35/36:
Observation at point (20.363641, 69.348151), azimuth 340.0, elevation 45.0. Observed point at altitude 110.0, position (19.38745468736078, 70.25174784835198)
Starting time:  14:35:26
10000.0 bins to compute per processor
Computing DONE in:  0:00:01.523295
*******************************************************************************************************************************
STARTING calculation for GROUND map 36/36:
Observation at point (20.363641, 69.348151), azimuth 350.0, elevation 45.0. Observed point at altitude 110.0, position (19.86693801477479, 70.29721040969213)
Starting time:  14:35:28
10000.0 bins to compute per processor
Computing DONE in:  0:00:01.577352
Stacking processor results...
Print results in log/grd_map_convergence.csv
Simulation ran in: 0:01:02.003389
RECAP:
Maximum DoLP: 7.937799667095212% at time 0 azimuth 70.0 and elevation 45.0
