Correct input file in use: systemic/systemic_azimuts180_elevations45_point_src_dist5_point_src_az180_resolution_along_los0.1_RS_min_altitude89.95_RS_max_altitude90.1_wavelength391.4_emission_altitude90_max_angle_discretization45.5
Loading the sky emission cube...
Has_sky_emission: True
Has_ground_emission: False
lagorge 0.10361906322688955 0.7891042478910105
ALT MAP BOUNDS 5.037613394081269 6.836256605918731 44.31302139408126 46.111664605918726
0.01569612305760477
ALT MAP BOUNDS 5.036200993144891 6.8348442049823515 44.309575523615855 46.10821873545331
ALT MAP BOUNDS 5.036200993144891 6.8348442049823515 44.309575523615855 46.10821873545331
Initialization DONE
*******************************************************************************************************************************
STARTING calculation for obs:
Observation at point (5.936935, 45.212343), azimuth 180.0, elevation 45.0. Observed point at altitude 90.0, position (5.936935000000001, 44.4196935987303)
2.0 bins to compute
  0%|          | 0/2.0 [00:00<?, ?it/s]/home/bossel/These/Analysis/src/rayleigh/world.py:385: RuntimeWarning: divide by zero encountered in double_scalars
  I0 *= self.sky_map.GetPixelArea(ie_E) / RE ** 2
100%|██████████| 2/2.0 [00:00<00:00, 367.34it/s]
Computing DONE
Traceback (most recent call last):
  File "./systematic.py", line 313, in <module>
    RunSystematicSimulation()
  File "./systematic.py", line 301, in RunSystematicSimulation
    RunSimulation(file_name, show = False, output_result_file = "log/systematic_results.csv")
  File "/home/bossel/These/Analysis/src/rayleigh/main.py", line 41, in RunSimulation
    simu.ComputeAllMaps()
  File "/home/bossel/These/Analysis/src/rayleigh/simulation.py", line 90, in ComputeAllMaps
    self.GetLightParametersList()
  File "/home/bossel/These/Analysis/src/rayleigh/simulation.py", line 114, in GetLightParametersList
    self.GetLightParameters(ground = self.world.has_ground_emission, sky = self.world.has_sky_emission, time = t, ie_pc = ie_pc, ia_pc = ia_pc)
  File "/home/bossel/These/Analysis/src/rayleigh/simulation.py", line 239, in GetLightParameters
    self.world.DrawAoLPHist(self.hst,self.bins, self.I0, self.DoLP, self.AoRD, double=True, save = self.save_individual_plots, save_name = self.path + self.save_name + '_hist.png', show=True)
  File "/home/bossel/These/Analysis/src/rayleigh/world.py", line 529, in DrawAoLPHist
    f3, ax = plt.subplots(1, figsize=(16, 8))
  File "/home/bossel/.local/lib/python3.8/site-packages/matplotlib/pyplot.py", line 1177, in subplots
    fig = figure(**fig_kw)
  File "/home/bossel/.local/lib/python3.8/site-packages/matplotlib/pyplot.py", line 540, in figure
    figManager = new_figure_manager(num, figsize=figsize,
  File "/home/bossel/.local/lib/python3.8/site-packages/matplotlib/backend_bases.py", line 3358, in new_figure_manager
    return cls.new_figure_manager_given_figure(num, fig)
  File "/home/bossel/.local/lib/python3.8/site-packages/matplotlib/backend_bases.py", line 3364, in new_figure_manager_given_figure
    manager = cls.FigureManager(canvas, num)
  File "/home/bossel/.local/lib/python3.8/site-packages/matplotlib/backends/backend_qt5.py", line 578, in __init__
    self.window.statusBar().addWidget(statusbar_label)
KeyboardInterrupt
