Correct input file in use: systemic/systemic_azimuts0_elevations90_point_src_dist0.55_point_src_az0_resolution_along_los0.1_RS_min_altitude0_RS_max_altitude50_wavelength391.4_emission_altitude90_max_angle_discretization1
Has_sky_emission: False
AzDistToLonLat 0.0 0.55 0.0 8.632867681682625e-05 0.0 0.55
Has_ground_emission: True
lagorge 0.10361906322688955 0.7891042478910105
ALT MAP BOUNDS 5.037613394081269 6.836256605918731 44.31302139408126 46.111664605918726
0.01569612305760477
ALT MAP BOUNDS 5.036200993144891 6.8348442049823515 44.309575523615855 46.10821873545331
ALT MAP BOUNDS 5.036200993144891 6.8348442049823515 44.309575523615855 46.10821873545331
Initialization DONE
*******************************************************************************************************************************
STARTING calculation for obs:
Observation at point (5.936935, 45.212343), azimuth 0.0, elevation 90.0. Observed point at altitude 90.0, position (5.936935000000001, 45.212343000000004)
500 bins to compute
  0%|          | 0/500 [00:00<?, ?it/s]  3%|▎         | 13/500 [00:00<00:04, 119.93it/s]  8%|▊         | 38/500 [00:00<00:03, 141.85it/s] 20%|██        | 101/500 [00:00<00:02, 184.71it/s] 33%|███▎      | 163/500 [00:00<00:01, 233.76it/s] 77%|███████▋  | 387/500 [00:00<00:00, 319.61it/s]100%|██████████| 500/500 [00:00<00:00, 920.11it/s]
Computing DONE
1.991102261596707e-06 1.9476124368865153e-06
Making and NOT saving plots...
ALL TIME SINCE START: 1.0203802585601807
