Correct input file in use: systemic/systemic_azimuts180_elevations45_point_src_dist5_point_src_az0_resolution_along_los0.1_RS_min_altitude0_RS_max_altitude30_wavelength391.4_emission_altitude90_max_angle_discretization1
Has_sky_emission: False
AzDistToLonLat 0.0 5.0 0.0 0.0007848061528802386 0.0 5.0
Has_ground_emission: True
lagorge 0.10361906322688955 0.7891042478910105
ALT MAP BOUNDS 5.037613394081269 6.836256605918731 44.31302139408126 46.111664605918726
0.01569612305760477
ALT MAP BOUNDS 5.036200993144891 6.8348442049823515 44.309575523615855 46.10821873545331
ALT MAP BOUNDS 5.036200993144891 6.8348442049823515 44.309575523615855 46.10821873545331
Initialization DONE
*******************************************************************************************************************************
STARTING calculation for obs:
Observation at point (5.936935, 45.212343), azimuth 180.0, elevation 45.0. Observed point at altitude 90.0, position (5.936935000000001, 44.4196935987303)
424 bins to compute
  0%|          | 0/424 [00:00<?, ?it/s] 50%|█████     | 212/424 [00:00<00:00, 2113.50it/s] 99%|█████████▉| 419/424 [00:00<00:00, 2098.26it/s]100%|██████████| 424/424 [00:00<00:00, 2084.98it/s]
Computing DONE
8.104205031292664e-08 6.771517162226244e-08
Making and NOT saving plots...
ALL TIME SINCE START: 0.4407341480255127
