Correct input file in use: systemic/systemic_azimuts180_elevations45_point_src_dist5_point_src_az180_resolution_along_los8.556565656565656_RS_min_altitude0_RS_max_altitude100_wavelength391.4_emission_altitude90_max_angle_discretization1
Loading the sky emission cube...
Has_sky_emission: True
Has_ground_emission: False
lagorge 0.10361906322688955 0.7891042478910105
ALT MAP BOUNDS 5.037613394081269 6.836256605918731 44.31302139408126 46.111664605918726
0.01569612305760477
ALT MAP BOUNDS 5.036200993144891 6.8348442049823515 44.309575523615855 46.10821873545331
ALT MAP BOUNDS 5.036200993144891 6.8348442049823515 44.309575523615855 46.10821873545331
Initialization DONE
*******************************************************************************************************************************
STARTING calculation for obs:
Observation at point (5.936935, 45.212343), azimuth 180.0, elevation 45.0. Observed point at altitude 90.0, position (5.936935000000001, 44.4196935987303)
16.0 bins to compute
  0%|          | 0/16.0 [00:00<?, ?it/s] 62%|██████▎   | 10/16.0 [00:00<00:00, 65.09it/s] 75%|███████▌  | 12/16.0 [00:00<00:00, 14.11it/s] 88%|████████▊ | 14/16.0 [00:02<00:00,  2.42it/s] 94%|█████████▍| 15/16.0 [00:20<00:00,  2.42it/s]100%|██████████| 16/16.0 [00:26<00:00,  3.78s/it]100%|██████████| 16/16.0 [00:26<00:00,  1.64s/it]
Computing DONE
opt_depth, direct:
0.5566973416535387 0
Making and NOT saving plots...
ALL TIME SINCE START: 26.954424142837524
