Correct input file in use: systemic/systemic_azimuts180_elevations90_point_src_dist5_point_src_az180_resolution_along_los0.1_RS_min_altitude0_RS_max_altitude90_wavelength391.4_emission_altitude90_max_angle_discretization1
Loading the sky emission cube...
Has_sky_emission: True
Has_ground_emission: False
lagorge 0.10361906322688955 0.7891042478910105
ALT MAP BOUNDS 5.037613394081269 6.836256605918731 44.31302139408126 46.111664605918726
0.01569612305760477
ALT MAP BOUNDS 5.036200993144891 6.8348442049823515 44.309575523615855 46.10821873545331
ALT MAP BOUNDS 5.036200993144891 6.8348442049823515 44.309575523615855 46.10821873545331
Initialization DONE
*******************************************************************************************************************************
STARTING calculation for obs:
Observation at point (5.936935, 45.212343), azimuth 180.0, elevation 90.0. Observed point at altitude 90.0, position (5.936935000000001, 45.212343000000004)
899.0 bins to compute
  0%|          | 0/899.0 [00:00<?, ?it/s] 32%|███▏      | 291/899.0 [00:00<00:00, 2900.67it/s] 60%|██████    | 540/899.0 [00:00<00:00, 2759.68it/s] 75%|███████▌  | 676/899.0 [00:00<00:00, 1149.87it/s] 87%|████████▋ | 786/899.0 [00:02<00:00, 151.74it/s]  96%|█████████▌| 865/899.0 [00:17<00:02, 16.70it/s]  96%|█████████▋| 866/899.0 [00:17<00:07,  4.21it/s] 96%|█████████▋| 867/899.0 [00:18<00:11,  2.71it/s] 97%|█████████▋| 868/899.0 [00:19<00:15,  1.99it/s] 97%|█████████▋| 869/899.0 [00:20<00:18,  1.64it/s] 97%|█████████▋| 870/899.0 [00:21<00:19,  1.50it/s] 97%|█████████▋| 871/899.0 [00:22<00:21,  1.31it/s] 97%|█████████▋| 872/899.0 [00:22<00:22,  1.21it/s] 97%|█████████▋| 873/899.0 [00:23<00:22,  1.15it/s] 97%|█████████▋| 874/899.0 [00:25<00:23,  1.04it/s] 97%|█████████▋| 875/899.0 [00:26<00:24,  1.02s/it] 97%|█████████▋| 876/899.0 [00:27<00:24,  1.07s/it] 98%|█████████▊| 877/899.0 [00:28<00:25,  1.17s/it] 98%|█████████▊| 878/899.0 [00:30<00:25,  1.23s/it] 98%|█████████▊| 879/899.0 [00:31<00:27,  1.36s/it] 98%|█████████▊| 880/899.0 [00:33<00:27,  1.44s/it] 98%|█████████▊| 881/899.0 [00:35<00:29,  1.62s/it] 98%|█████████▊| 882/899.0 [00:37<00:29,  1.73s/it] 98%|█████████▊| 883/899.0 [00:39<00:30,  1.89s/it] 98%|█████████▊| 884/899.0 [00:42<00:31,  2.10s/it] 98%|█████████▊| 885/899.0 [00:45<00:33,  2.41s/it] 99%|█████████▊| 886/899.0 [00:48<00:32,  2.50s/it] 99%|█████████▊| 887/899.0 [00:51<00:32,  2.68s/it] 99%|█████████▉| 888/899.0 [00:54<00:30,  2.82s/it] 99%|█████████▉| 889/899.0 [00:58<00:31,  3.15s/it] 99%|█████████▉| 890/899.0 [01:02<00:31,  3.46s/it] 99%|█████████▉| 891/899.0 [01:07<00:31,  3.88s/it] 99%|█████████▉| 892/899.0 [01:13<00:31,  4.47s/it] 99%|█████████▉| 893/899.0 [01:19<00:30,  5.03s/it] 99%|█████████▉| 894/899.0 [01:26<00:27,  5.60s/it]100%|█████████▉| 895/899.0 [01:33<00:23,  5.91s/it]100%|█████████▉| 896/899.0 [01:40<00:19,  6.34s/it]100%|█████████▉| 897/899.0 [01:48<00:13,  6.96s/it]100%|█████████▉| 898/899.0 [01:58<00:07,  7.74s/it]100%|██████████| 899/899.0 [02:09<00:00,  8.60s/it]100%|██████████| 899/899.0 [02:09<00:00,  6.96it/s]
Computing DONE
opt_depth, direct:
0.3936444653517414 0
Making and NOT saving plots...
ALL TIME SINCE START: 129.6827154159546
