Correct input file in use: systemic/systemic_azimutsall_elevations45_Nb_points_along_los100_RS_min_altitude0_RS_max_altitude100_use_analytictrue_Atmospheric_profileatm_profiles-day.atm
All input parameter from the input file:
path: /home/bossel/These/Analysis/data/Night_pollution/
src_path: /home/bossel/These/Analysis/src/rayleigh/
saving_graphs: 0
flux_unit: W
use_analytic: true
azimuts: all
elevations: 45
location: skibotn
instrument_opening_angle: 1
instrument_area: 20
wavelength: 391.4
RS_min_altitude: 0
RS_max_altitude: 100
resolution_along_los: 1
Nb_points_along_los: 100
max_angle_discretization: 0
Atmospheric_profile: atm_profiles/day.atm
sky_mode: none
emission_altitude: 110
Nb_emission_points: 100
Nb_emission_maps: 1
I_zone_a_min: 0
I_zone_a_max: 360
I_zone_e_min: 0
I_zone_e_max: 90
sky_path: /home/bossel/These/Analysis/data/allsky_camera/tid.uio.no/plasma/aurora/
sky_file: skn4/5577/2019/20190307/ut20/
sky_wavelength: 557.7
use_alt_map: 0
alt_map_path: /home/bossel/These/Analysis/data/elevation/
alt_map_radius: 30
alt_map_N_bins_max: 10000
alt_map_resolution: 0.2
ground_mode: point_I100_a180_d5
shader_mode: none
ground_emission_radius: 50
ground_N_bins_max: 1000
ground_albedo: altitude
ground_path: /home/bossel/These/Analysis/data/Night_pollution/
ground_file: nighttime_light_files/SVDNB_npp_20160101-20161231_75N060W_vcm-orm_v10_c201807311200.avg_rade9.tif
Has_sky_emission: False
Has_ground_emission: True
Initialization DONE
*******************************************************************************************************************************
STARTING calculation for GROUND map 1/36:
Observation at point (20.363641, 69.348151), azimuth 0.0, elevation 45.0. Observed point at altitude 110.0, position (20.363640999999998, 70.31254209541123)
Starting time:  16:44:37
100.0 bins to compute per processor
0.22589185409138055 0.7978043762796403
0.8461258691010476 0.42907400500128123
1.0854311515957513 0.3377561304025726
1.1461448185794154 0.3178598175910209
1.156150845152435 0.31469516302243744
1.1541650885155903 0.3153206918995014
1.1502568908052127 0.31655543875139996
1.1466563179473763 0.3176972740692211
1.1436591052331242 0.3186509087874983
1.1412044039515092 0.3194340623925209
Computing DONE in:  0:00:00.014513
*******************************************************************************************************************************
STARTING calculation for GROUND map 2/36:
Observation at point (20.363641, 69.348151), azimuth 10.0, elevation 45.0. Observed point at altitude 110.0, position (20.86034385403887, 70.29721017027023)
Starting time:  16:44:37
100.0 bins to compute per processor
0.22589185409138055 0.7978043762796403
0.8448439409143775 0.4296243997703701
1.0843968393018537 0.33810565644897034
1.145356976895202 0.31811033947789
1.1555306857756342 0.3148903847066418
1.1536578619175317 0.31548067151087816
1.1498288801677659 0.3166909568460514
1.1462864217726105 0.3178148108124885
1.1433335303209105 0.31875467041932914
1.140913705825614 0.31952693477406513
Computing DONE in:  0:00:00.017903
*******************************************************************************************************************************
STARTING calculation for GROUND map 3/36:
Observation at point (20.363641, 69.348151), azimuth 20.0, elevation 45.0. Observed point at altitude 110.0, position (21.339827055393656, 70.25174762092317)
Starting time:  16:44:37
100.0 bins to compute per processor
0.22589185409138055 0.7978043762796403
0.8410170074834875 0.431271693780394
1.0813144787641087 0.3391494277954002
1.1430112937793835 0.3188574013728653
1.153685263372845 0.3154720269997922
1.1521490383849848 0.3159570354563108
1.1485560188552126 0.317094317169472
1.1451865935161893 0.3181645448101419
1.1423656243435127 0.31906334432971467
1.1400495847029632 0.319803164078259
Computing DONE in:  0:00:00.012261
*******************************************************************************************************************************
STARTING calculation for GROUND map 4/36:
Observation at point (20.363641, 69.348151), azimuth 29.999999999999996, elevation 45.0. Observed point at altitude 110.0, position (21.785690917534886, 70.17772832091121)
Starting time:  16:44:37
100.0 bins to compute per processor
0.22589185409138055 0.7978043762796403
0.8347019250652312 0.4340038278172417
1.0762459270986051 0.3408727879731003
1.1391612588831155 0.3200873797055287
1.1506596322815619 0.3164279744159611
1.1496770419378834 0.31673904629117444
1.1464716624537274 0.3177559440328941
1.1433862558361072 0.3187378643581679
1.1407816880133543 0.31956912080554456
1.1386358094737852 0.32025561362546523
Computing DONE in:  0:00:00.011349
*******************************************************************************************************************************
STARTING calculation for GROUND map 5/36:
Observation at point (20.363641, 69.348151), azimuth 40.0, elevation 45.0. Observed point at altitude 110.0, position (22.18310255944999, 70.07769178504623)
Starting time:  16:44:37
100.0 bins to compute per processor
0.22589185409138055 0.7978043762796403
0.8259944930277147 0.4377993874594144
1.0692946966956858 0.34325052779477655
1.1338958833554509 0.3217772048392141
1.1465284914453606 0.31773788679610143
1.1463054181353503 0.31780877354440157
1.143630873990129 0.31865990482571893
1.1409339127548574 0.319520478181137
1.138625032452843 0.3202590650455181
1.136711488501736 0.32087248155477216
Computing DONE in:  0:00:00.015573
*******************************************************************************************************************************
STARTING calculation for GROUND map 6/36:
Observation at point (20.363641, 69.348151), azimuth 50.0, elevation 45.0. Observed point at altitude 110.0, position (22.519408749763613, 69.95502575342036)
Starting time:  16:44:37
100.0 bins to compute per processor
0.22589185409138055 0.7978043762796403
0.8150311156482388 0.4426255545660201
1.060606542472166 0.3462457338829478
1.127339428134569 0.323893853949017
1.1413955421628084 0.31937301217190806
1.142122050662136 0.31914106922857105
1.1401095986734175 0.3197839719965211
1.1378963264414899 0.3204925248028406
1.1359551776134231 0.32111525269999003
1.1343302980343586 0.3216374504559697
Computing DONE in:  0:00:00.014521
*******************************************************************************************************************************
STARTING calculation for GROUND map 7/36:
Observation at point (20.363641, 69.348151), azimuth 59.99999999999999, elevation 45.0. Observed point at altitude 110.0, position (22.78457517871535, 69.8138163678588)
Starting time:  16:44:37
100.0 bins to compute per processor
0.22589185409138055 0.7978043762796403
0.8019913362382147 0.44843508936607007
1.0503701904222793 0.34980822948298246
1.119650887160034 0.3263937229745319
1.1353924771235642 0.32129599525717917
1.1372379815001414 0.32070358890415296
1.1360034482507588 0.32109975263618595
1.1343573212375713 0.3216287588992226
1.1328466989020203 0.32211498564620006
1.1315593798976988 0.3225299174062675
Computing DONE in:  0:00:00.010359
*******************************************************************************************************************************
STARTING calculation for GROUND map 8/36:
Observation at point (20.363641, 69.348151), azimuth 70.0, elevation 45.0. Observed point at altitude 110.0, position (22.97143765564028, 69.65867755697063)
Starting time:  16:44:37
100.0 bins to compute per processor
0.22589185409138055 0.7978043762796403
0.7871014478055451 0.4551621964653515
1.0388180732295864 0.35387268648622483
1.1110230718617262 0.3292219709872649
1.1286774850300425 0.3234607553642311
1.131785753349071 0.322456913459083
1.1314260385257713 0.3225729268553479
1.1304161759188958 0.322898845731114
1.1293876953170119 0.3232311117656162
1.1284778906019723 0.32352532277213425
Computing DONE in:  0:00:00.016586
*******************************************************************************************************************************
STARTING calculation for GROUND map 9/36:
Observation at point (20.363641, 69.348151), azimuth 80.0, elevation 45.0. Observed point at altitude 110.0, position (23.07577411994994, 69.49457123309257)
Starting time:  16:44:37
100.0 bins to compute per processor
0.22589185409138055 0.7978043762796403
0.7706394209552835 0.46271710268617516
1.026226837701707 0.35835655028235947
1.1016810777496195 0.3323119716128979
1.121433119700469 0.3258125315234502
1.125917174462233 0.32435484091473826
1.1265068144233568 0.324163644712951
1.1261855613500362 0.32426780000928257
1.125677851712159 0.32443247569677997
1.1251751852161678 0.32459559802715465
Computing DONE in:  0:00:00.015754
*******************************************************************************************************************************
STARTING calculation for GROUND map 10/36:
Observation at point (20.363641, 69.348151), azimuth 90.0, elevation 45.0. Observed point at altitude 110.0, position (23.096223976486375, 69.32662857005603)
Starting time:  16:44:37
100.0 bins to compute per processor
0.22589185409138055 0.7978043762796403
0.7529413699178928 0.4709791893472885
1.012917235608204 0.36315801528894937
1.0918798392052107 0.33558505444850967
1.1138633514847371 0.3282882152230891
1.1198003951087334 0.32634492816623833
1.121388295481817 0.32582713614292064
1.1217889837731814 0.32569660717691995
1.1218260731391592 0.32568452752027344
1.1217486257656124 0.3257097519083034
Computing DONE in:  0:00:00.011805
*******************************************************************************************************************************
STARTING calculation for GROUND map 11/36:
Observation at point (20.363641, 69.348151), azimuth 100.0, elevation 45.0. Observed point at altitude 110.0, position (23.034091235470655, 69.15998047052237)
Starting time:  16:44:37
100.0 bins to compute per processor
0.22589185409138055 0.7978043762796403
0.7344096214909317 0.47978863227434404
0.9992527943633257 0.368154425485623
1.0819004038211322 0.3389507698525963
1.1061896004515974 0.33081710789040264
1.1136161872946502 0.32836936634233205
1.1162226847391103 0.32751458690227014
1.1173577066395826 0.3271430615579987
1.1179476823988281 0.3269501120052502
1.1183010167441225 0.3268346097081468
Computing DONE in:  0:00:00.016053
*******************************************************************************************************************************
STARTING calculation for GROUND map 12/36:
Observation at point (20.363641, 69.348151), azimuth 110.0, elevation 45.0. Observed point at altitude 110.0, position (22.893070482929605, 68.99960286908345)
Starting time:  16:44:37
100.0 bins to compute per processor
0.22589185409138055 0.7978043762796403
0.715522003379218 0.4889368184986661
0.9856363927775282 0.3732016485144069
1.0720445026866305 0.3423079519812962
1.09864555791617 0.33332224376845165
1.1075533426342008 0.3303662661314805
1.1111678100162412 0.32917432345504954
1.113027148722347 0.32856284554283216
1.1141611944903347 0.3281904514342179
1.1149376905077606 0.32793571177068864
Computing DONE in:  0:00:00.016113
*******************************************************************************************************************************
STARTING calculation for GROUND map 13/36:
Observation at point (20.363641, 69.348151), azimuth 119.99999999999999, elevation 45.0. Observed point at altitude 110.0, position (22.678931488768246, 68.85018018060431)
Starting time:  16:44:37
100.0 bins to compute per processor
0.22589185409138055 0.7978043762796403
0.6968409593064235 0.49815651743116646
0.9725035820721564 0.378135159646203
1.0626269915216957 0.3455468682679474
1.0914706519628203 0.3357223996695667
1.1018031552488843 0.33227140627453555
1.106382412357167 0.33075332856233974
1.1089327949602708 0.3299108557978487
1.1105847142377059 0.3293663195840847
1.1117632929098509 0.3289783641274209
Computing DONE in:  0:00:00.015515
*******************************************************************************************************************************
STARTING calculation for GROUND map 14/36:
Observation at point (20.363641, 69.348151), azimuth 130.0, elevation 45.0. Observed point at altitude 110.0, position (22.399191503723667, 68.71598826650627)
Starting time:  16:44:37
100.0 bins to compute per processor
0.22589185409138055 0.7978043762796403
0.6790191558329048 0.5071141484639746
0.9603113007809247 0.38277370967149804
1.0539658361932291 0.34855270157150287
1.0849021206034313 0.33793486113628185
1.0965530431316919 0.3340204557462087
1.102020863384808 0.3321990759597894
1.105205708831373 0.3311427562457568
1.1073320450264368 0.33043938348591073
1.108878353308425 0.3299288171787193
Computing DONE in:  0:00:00.014966
*******************************************************************************************************************************
STARTING calculation for GROUND map 15/36:
Observation at point (20.363641, 69.348151), azimuth 140.0, elevation 45.0. Observed point at altitude 110.0, position (22.062796098303526, 68.6007968743641)
Starting time:  16:44:38
100.0 bins to compute per processor
0.22589185409138055 0.7978043762796403
0.6627950999558881 0.5154087004418701
0.9495207287357352 0.3869264217382414
1.0463695647600364 0.35121048434084295
1.0791658336473016 0.3398789229897907
1.0919794825757947 0.33555161728849014
1.0982274787620474 0.33346162798496404
1.1019677976414948 0.3322167048184233
1.1045086440115441 0.33137366468120044
1.1063757600492155 0.3307555288426558
Computing DONE in:  0:00:00.016515
*******************************************************************************************************************************
STARTING calculation for GROUND map 16/36:
Observation at point (20.363641, 69.348151), azimuth 150.0, elevation 45.0. Observed point at altitude 110.0, position (21.679821326555917, 68.50779060852261)
Starting time:  16:44:38
100.0 bins to compute per processor
0.22589185409138055 0.7978043762796403
0.6489684706672723 0.522584560130422
0.9405736715903673 0.39040380753231285
1.0401225361821562 0.35341137362496083
1.0744662454358564 0.34147997316109874
1.088240575993119 0.3368085617739234
1.0951306897504824 0.3344958889076612
1.099327047516502 0.3330951655102883
1.1022076063762143 0.3321370459026218
1.1043372978482817 0.3314304491520115
Computing DONE in:  0:00:00.016164
*******************************************************************************************************************************
STARTING calculation for GROUND map 17/36:
Observation at point (20.363641, 69.348151), azimuth 160.0, elevation 45.0. Observed point at altitude 110.0, position (21.261202996719906, 68.4395070395179)
Starting time:  16:44:38
100.0 bins to compute per processor
0.22589185409138055 0.7978043762796403
0.6383430848580826 0.5281668270504088
0.9338632735618618 0.39303238199956414
1.035468956084009 0.35505983440697
1.0709761331103447 0.34267385880997125
1.0854687207668818 0.33774344142306784
1.0928374230946747 0.33526385741791975
1.097373001748506 0.3337466850509865
1.100505899868034 0.33270272685020863
1.102830430827434 0.3319302472355959
Computing DONE in:  0:00:00.016049
*******************************************************************************************************************************
STARTING calculation for GROUND map 18/36:
Observation at point (20.363641, 69.348151), azimuth 170.0, elevation 45.0. Observed point at altitude 110.0, position (20.818493298703018, 68.39779045618862)
Starting time:  16:44:38
100.0 bins to compute per processor
0.22589185409138055 0.7978043762796403
0.6316314292455202 0.5317236235444205
0.9297019436920497 0.3946713271211389
1.0325971857953649 0.3560809501933318
1.068827016887039 0.3434110966804197
1.0837639610061094 0.3383197039064559
1.0914281000814807 0.3357366855932248
1.09617279076212 0.33414749196737303
1.0994610914777359 0.3330505191071927
1.1019055274960663 0.3322373926450564
Computing DONE in:  0:00:00.014046
*******************************************************************************************************************************
STARTING calculation for GROUND map 19/36:
Observation at point (20.363641, 69.348151), azimuth 180.0, elevation 45.0. Observed point at altitude 110.0, position (20.363640999999998, 68.38375990458876)
Starting time:  16:44:38
100.0 bins to compute per processor
0.22589185409138055 0.7978043762796403
0.6293338012027786 0.5329467312380574
0.9282915368730997 0.3952283669862258
1.031626336632271 0.3564268189518515
1.068101288373522 0.3436604103612199
1.0831886462275213 0.3385144002324675
1.0909526773208973 0.33589634040387684
1.0957680215048617 0.3342827719762587
1.0991088024627431 0.3331678698159809
1.1015937160738671 0.3323410042117603
Computing DONE in:  0:00:00.015463
*******************************************************************************************************************************
STARTING calculation for GROUND map 20/36:
Observation at point (20.363641, 69.348151), azimuth 190.0, elevation 45.0. Observed point at altitude 110.0, position (19.908788701296977, 68.39779045618862)
Starting time:  16:44:38
100.0 bins to compute per processor
0.22589185409138055 0.7978043762796403
0.6316314292455202 0.5317236235444205
0.9297019436920497 0.3946713271211389
1.0325971857953649 0.3560809501933318
1.068827016887039 0.3434110966804197
1.0837639610061094 0.3383197039064559
1.0914281000814807 0.3357366855932248
1.09617279076212 0.33414749196737303
1.0994610914777359 0.3330505191071927
1.1019055274960663 0.3322373926450564
Computing DONE in:  0:00:00.015651
*******************************************************************************************************************************
STARTING calculation for GROUND map 21/36:
Observation at point (20.363641, 69.348151), azimuth 200.0, elevation 45.0. Observed point at altitude 110.0, position (19.46607900328009, 68.4395070395179)
Starting time:  16:44:38
100.0 bins to compute per processor
0.22589185409138055 0.7978043762796403
0.6383430848580824 0.528166827050409
0.9338632735618618 0.39303238199956414
1.035468956084009 0.35505983440697
1.0709761331103447 0.34267385880997125
1.0854687207668818 0.33774344142306784
1.0928374230946747 0.33526385741791975
1.097373001748506 0.3337466850509865
1.100505899868034 0.33270272685020863
1.102830430827434 0.3319302472355959
Computing DONE in:  0:00:00.015394
*******************************************************************************************************************************
STARTING calculation for GROUND map 22/36:
Observation at point (20.363641, 69.348151), azimuth 210.00000000000003, elevation 45.0. Observed point at altitude 110.0, position (19.047460673444075, 68.50779060852261)
Starting time:  16:44:38
100.0 bins to compute per processor
0.22589185409138055 0.7978043762796403
0.6489684706672723 0.522584560130422
0.9405736715903673 0.39040380753231285
1.0401225361821562 0.35341137362496083
1.0744662454358564 0.34147997316109874
1.088240575993119 0.3368085617739234
1.0951306897504824 0.3344958889076612
1.099327047516502 0.3330951655102883
1.1022076063762143 0.3321370459026218
1.1043372978482817 0.3314304491520115
Computing DONE in:  0:00:00.016748
*******************************************************************************************************************************
STARTING calculation for GROUND map 23/36:
Observation at point (20.363641, 69.348151), azimuth 220.0, elevation 45.0. Observed point at altitude 110.0, position (18.66448590169647, 68.6007968743641)
Starting time:  16:44:38
100.0 bins to compute per processor
0.22589185409138055 0.7978043762796403
0.6627950999558881 0.5154087004418701
0.9495207287357352 0.3869264217382414
1.0463695647600364 0.35121048434084295
1.0791658336473016 0.3398789229897907
1.0919794825757947 0.33555161728849014
1.0982274787620474 0.33346162798496404
1.1019677976414948 0.3322167048184233
1.1045086440115441 0.33137366468120044
1.1063757600492155 0.3307555288426558
Computing DONE in:  0:00:00.015168
*******************************************************************************************************************************
STARTING calculation for GROUND map 24/36:
Observation at point (20.363641, 69.348151), azimuth 230.0, elevation 45.0. Observed point at altitude 110.0, position (18.32809049627633, 68.71598826650627)
Starting time:  16:44:38
100.0 bins to compute per processor
0.22589185409138055 0.7978043762796403
0.6790191558329048 0.5071141484639746
0.9603113007809247 0.38277370967149804
1.0539658361932291 0.34855270157150287
1.0849021206034313 0.33793486113628185
1.0965530431316919 0.3340204557462087
1.102020863384808 0.3321990759597894
1.105205708831373 0.3311427562457568
1.1073320450264368 0.33043938348591073
1.108878353308425 0.3299288171787193
Computing DONE in:  0:00:00.015975
*******************************************************************************************************************************
STARTING calculation for GROUND map 25/36:
Observation at point (20.363641, 69.348151), azimuth 239.99999999999997, elevation 45.0. Observed point at altitude 110.0, position (18.04835051123175, 68.85018018060431)
Starting time:  16:44:38
100.0 bins to compute per processor
0.22589185409138055 0.7978043762796403
0.6968409593064235 0.49815651743116646
0.9725035820721563 0.37813515964620303
1.0626269915216957 0.3455468682679474
1.0914706519628203 0.3357223996695667
1.101803155248884 0.3322714062745356
1.106382412357167 0.33075332856233974
1.1089327949602708 0.3299108557978487
1.1105847142377059 0.3293663195840847
1.1117632929098509 0.3289783641274209
Computing DONE in:  0:00:00.013953
*******************************************************************************************************************************
STARTING calculation for GROUND map 26/36:
Observation at point (20.363641, 69.348151), azimuth 250.00000000000003, elevation 45.0. Observed point at altitude 110.0, position (17.834211517070393, 68.99960286908345)
Starting time:  16:44:38
100.0 bins to compute per processor
0.22589185409138055 0.7978043762796403
0.715522003379218 0.4889368184986661
0.9856363927775282 0.3732016485144069
1.0720445026866305 0.3423079519812962
1.09864555791617 0.33332224376845165
1.1075533426342008 0.3303662661314805
1.1111678100162412 0.32917432345504954
1.113027148722347 0.32856284554283216
1.1141611944903347 0.3281904514342179
1.1149376905077606 0.32793571177068864
Computing DONE in:  0:00:00.014892
*******************************************************************************************************************************
STARTING calculation for GROUND map 27/36:
Observation at point (20.363641, 69.348151), azimuth 260.0, elevation 45.0. Observed point at altitude 110.0, position (17.69319076452934, 69.15998047052237)
Starting time:  16:44:38
100.0 bins to compute per processor
0.22589185409138055 0.7978043762796403
0.7344096214909317 0.47978863227434404
0.9992527943633258 0.36815442548562294
1.0819004038211322 0.3389507698525963
1.1061896004515974 0.33081710789040264
1.1136161872946502 0.32836936634233205
1.1162226847391103 0.32751458690227014
1.1173577066395826 0.3271430615579987
1.1179476823988281 0.3269501120052502
1.1183010167441225 0.3268346097081468
Computing DONE in:  0:00:00.015737
*******************************************************************************************************************************
STARTING calculation for GROUND map 28/36:
Observation at point (20.363641, 69.348151), azimuth 270.0, elevation 45.0. Observed point at altitude 110.0, position (17.63105802351362, 69.32662857005603)
Starting time:  16:44:38
100.0 bins to compute per processor
0.22589185409138055 0.7978043762796403
0.7529413699178928 0.4709791893472885
1.012917235608204 0.36315801528894937
1.0918798392052107 0.33558505444850967
1.1138633514847371 0.3282882152230891
1.1198003951087334 0.32634492816623833
1.121388295481817 0.32582713614292064
1.1217889837731814 0.32569660717691995
1.1218260731391592 0.32568452752027344
1.1217486257656124 0.3257097519083034
Computing DONE in:  0:00:00.011395
*******************************************************************************************************************************
STARTING calculation for GROUND map 29/36:
Observation at point (20.363641, 69.348151), azimuth 280.0, elevation 45.0. Observed point at altitude 110.0, position (17.651507880050055, 69.49457123309257)
Starting time:  16:44:38
100.0 bins to compute per processor
0.22589185409138055 0.7978043762796403
0.7706394209552835 0.46271710268617516
1.026226837701707 0.35835655028235947
1.1016810777496195 0.3323119716128979
1.1214331197004688 0.3258125315234503
1.125917174462233 0.32435484091473826
1.1265068144233568 0.324163644712951
1.1261855613500362 0.32426780000928257
1.125677851712159 0.32443247569677997
1.1251751852161678 0.32459559802715465
Computing DONE in:  0:00:00.018313
*******************************************************************************************************************************
STARTING calculation for GROUND map 30/36:
Observation at point (20.363641, 69.348151), azimuth 290.0, elevation 45.0. Observed point at altitude 110.0, position (17.755844344359716, 69.65867755697063)
Starting time:  16:44:38
100.0 bins to compute per processor
0.22589185409138055 0.7978043762796403
0.7871014478055451 0.4551621964653515
1.0388180732295864 0.35387268648622483
1.1110230718617262 0.3292219709872649
1.1286774850300425 0.3234607553642311
1.131785753349071 0.322456913459083
1.1314260385257713 0.3225729268553479
1.1304161759188958 0.322898845731114
1.1293876953170119 0.3232311117656162
1.1284778906019723 0.32352532277213425
Computing DONE in:  0:00:00.015319
*******************************************************************************************************************************
STARTING calculation for GROUND map 31/36:
Observation at point (20.363641, 69.348151), azimuth 300.0, elevation 45.0. Observed point at altitude 110.0, position (17.94270682128465, 69.8138163678588)
Starting time:  16:44:38
100.0 bins to compute per processor
0.22589185409138055 0.7978043762796403
0.8019913362382147 0.44843508936607007
1.0503701904222793 0.34980822948298246
1.119650887160034 0.3263937229745319
1.1353924771235642 0.32129599525717917
1.1372379815001414 0.32070358890415296
1.1360034482507588 0.32109975263618595
1.1343573212375713 0.3216287588992226
1.1328466989020203 0.32211498564620006
1.1315593798976988 0.3225299174062675
Computing DONE in:  0:00:00.010585
*******************************************************************************************************************************
STARTING calculation for GROUND map 32/36:
Observation at point (20.363641, 69.348151), azimuth 310.0, elevation 45.0. Observed point at altitude 110.0, position (18.20787325023638, 69.95502575342036)
Starting time:  16:44:38
100.0 bins to compute per processor
0.22589185409138055 0.7978043762796403
0.8150311156482388 0.4426255545660201
1.060606542472166 0.3462457338829478
1.127339428134569 0.323893853949017
1.1413955421628084 0.31937301217190806
1.142122050662136 0.31914106922857105
1.1401095986734175 0.3197839719965211
1.1378963264414899 0.3204925248028406
1.1359551776134231 0.32111525269999003
1.1343302980343586 0.3216374504559697
Computing DONE in:  0:00:00.017200
*******************************************************************************************************************************
STARTING calculation for GROUND map 33/36:
Observation at point (20.363641, 69.348151), azimuth 320.0, elevation 45.0. Observed point at altitude 110.0, position (18.544179440550003, 70.07769178504623)
Starting time:  16:44:38
100.0 bins to compute per processor
0.22589185409138055 0.7978043762796403
0.8259944930277147 0.4377993874594144
1.0692946966956858 0.34325052779477655
1.1338958833554509 0.3217772048392141
1.1465284914453606 0.31773788679610143
1.1463054181353503 0.31780877354440157
1.143630873990129 0.31865990482571893
1.1409339127548574 0.319520478181137
1.138625032452843 0.3202590650455181
1.136711488501736 0.32087248155477216
Computing DONE in:  0:00:00.014601
*******************************************************************************************************************************
STARTING calculation for GROUND map 34/36:
Observation at point (20.363641, 69.348151), azimuth 330.0, elevation 45.0. Observed point at altitude 110.0, position (18.94159108246511, 70.17772832091121)
Starting time:  16:44:38
100.0 bins to compute per processor
0.22589185409138055 0.7978043762796403
0.8347019250652311 0.4340038278172418
1.0762459270986051 0.3408727879731003
1.1391612588831155 0.3200873797055287
1.1506596322815617 0.31642797441596116
1.1496770419378834 0.31673904629117444
1.1464716624537274 0.3177559440328941
1.1433862558361072 0.3187378643581679
1.1407816880133543 0.31956912080554456
1.1386358094737852 0.32025561362546523
Computing DONE in:  0:00:00.012150
*******************************************************************************************************************************
STARTING calculation for GROUND map 35/36:
Observation at point (20.363641, 69.348151), azimuth 340.0, elevation 45.0. Observed point at altitude 110.0, position (19.387454944606343, 70.25174762092317)
Starting time:  16:44:38
100.0 bins to compute per processor
0.22589185409138055 0.7978043762796403
0.8410170074834875 0.431271693780394
1.0813144787641087 0.3391494277954002
1.1430112937793835 0.3188574013728653
1.153685263372845 0.3154720269997922
1.1521490383849848 0.3159570354563108
1.1485560188552126 0.317094317169472
1.1451865935161893 0.3181645448101419
1.1423656243435127 0.31906334432971467
1.1400495847029632 0.319803164078259
Computing DONE in:  0:00:00.011188
*******************************************************************************************************************************
STARTING calculation for GROUND map 36/36:
Observation at point (20.363641, 69.348151), azimuth 350.0, elevation 45.0. Observed point at altitude 110.0, position (19.866938145961125, 70.29721017027023)
Starting time:  16:44:38
100.0 bins to compute per processor
0.22589185409138055 0.7978043762796403
0.8448439409143775 0.4296243997703701
1.0843968393018537 0.33810565644897034
1.145356976895202 0.31811033947789
1.1555306857756342 0.3148903847066418
1.1536578619175317 0.31548067151087816
1.1498288801677659 0.3166909568460514
1.1462864217726105 0.3178148108124885
1.1433335303209105 0.31875467041932914
1.140913705825614 0.31952693477406513
Computing DONE in:  0:00:00.009758
Print results in log/systematic_atm_profil.csv
Simulation ran in: 0:00:00.861052
