Correct input file in use: systemic/systemic_azimuts180_elevations45_point_src_dist5_point_src_az180_resolution_along_los0.1_RS_min_altitude0_RS_max_altitude100_wavelength391.4_emission_altitude90_max_angle_discretization360
Loading the sky emission cube...
Has_sky_emission: True
Has_ground_emission: False
lagorge 0.10361906322688955 0.7891042478910105
ALT MAP BOUNDS 5.037613394081269 6.836256605918731 44.31302139408126 46.111664605918726
0.01569612305760477
ALT MAP BOUNDS 5.036200993144891 6.8348442049823515 44.309575523615855 46.10821873545331
ALT MAP BOUNDS 5.036200993144891 6.8348442049823515 44.309575523615855 46.10821873545331
Initialization DONE
*******************************************************************************************************************************
STARTING calculation for obs:
Observation at point (5.936935, 45.212343), azimuth 180.0, elevation 45.0. Observed point at altitude 90.0, position (5.936935000000001, 44.4196935987303)
1414.0 bins to compute
  0%|          | 0/1414.0 [00:00<?, ?it/s] 16%|█▌        | 220/1414.0 [00:00<00:00, 2192.02it/s] 31%|███       | 434/1414.0 [00:00<00:00, 2173.93it/s] 45%|████▌     | 639/1414.0 [00:00<00:00, 2134.03it/s] 59%|█████▉    | 839/1414.0 [00:00<00:00, 2091.85it/s] 74%|███████▎  | 1041/1414.0 [00:00<00:00, 2068.79it/s] 87%|████████▋ | 1236/1414.0 [00:00<00:00, 2029.43it/s]100%|██████████| 1414/1414.0 [00:00<00:00, 2039.40it/s]
Computing DONE
opt_depth, direct:
0.5566973416535387 0
/home/bossel/These/Analysis/src/rayleigh/world.py:529: RuntimeWarning: More than 20 figures have been opened. Figures created through the pyplot interface (`matplotlib.pyplot.figure`) are retained until explicitly closed and may consume too much memory. (To control this warning, see the rcParam `figure.max_open_warning`).
  f3, ax = plt.subplots(1, figsize=(16, 8))
Making and NOT saving plots...
/home/bossel/These/Analysis/src/rayleigh/simulation.py:281: RuntimeWarning: More than 20 figures have been opened. Figures created through the pyplot interface (`matplotlib.pyplot.figure`) are retained until explicitly closed and may consume too much memory. (To control this warning, see the rcParam `figure.max_open_warning`).
  f1, (ax1, ax2, ax3, ax4) = plt.subplots(4, sharex = True, sharey = True, figsize=(16, 8))
/home/bossel/These/Analysis/src/rayleigh/simulation.py:362: RuntimeWarning: More than 20 figures have been opened. Figures created through the pyplot interface (`matplotlib.pyplot.figure`) are retained until explicitly closed and may consume too much memory. (To control this warning, see the rcParam `figure.max_open_warning`).
  f4, (ax1) = plt.subplots(1, sharex=True, figsize=(16, 8))
ALL TIME SINCE START: 1.6403486728668213
