Correct input file in use: systemic/systemic_azimuts180_elevations45_point_src_dist5_point_src_az0_resolution_along_los0.1_RS_min_altitude0_RS_max_altitude100_wavelength391.4_emission_altitude90_max_angle_discretization10
Loading the sky emission cube...
Has_sky_emission: True
Has_ground_emission: False
lagorge 0.10361906322688955 0.7891042478910105
ALT MAP BOUNDS 5.037613394081269 6.836256605918731 44.31302139408126 46.111664605918726
0.01569612305760477
ALT MAP BOUNDS 5.036200993144891 6.8348442049823515 44.309575523615855 46.10821873545331
ALT MAP BOUNDS 5.036200993144891 6.8348442049823515 44.309575523615855 46.10821873545331
Initialization DONE
*******************************************************************************************************************************
STARTING calculation for obs:
Observation at point (5.936935, 45.212343), azimuth 180.0, elevation 45.0. Observed point at altitude 90.0, position (5.936935000000001, 44.4196935987303)
1414.0 bins to compute
  0%|          | 0/1414.0 [00:00<?, ?it/s] 14%|█▍        | 196/1414.0 [00:00<00:00, 1959.70it/s] 26%|██▌       | 361/1414.0 [00:00<00:00, 1854.78it/s] 37%|███▋      | 527/1414.0 [00:00<00:00, 1791.33it/s] 50%|████▉     | 702/1414.0 [00:00<00:00, 1776.29it/s] 62%|██████▏   | 880/1414.0 [00:00<00:00, 1777.18it/s] 75%|███████▍  | 1055/1414.0 [00:00<00:00, 1767.48it/s] 86%|████████▌ | 1219/1414.0 [00:00<00:00, 1722.14it/s] 97%|█████████▋| 1376/1414.0 [00:00<00:00, 1196.38it/s]100%|██████████| 1414/1414.0 [00:00<00:00, 1487.35it/s]
Computing DONE
Making and NOT saving plots...
ALL TIME SINCE START: 1.1818013191223145
