Correct input file in use: systemic/systemic_azimuts180_elevations90_point_src_dist5_point_src_az180_resolution_along_los0.1_RS_min_altitude0_RS_max_altitude100_wavelength391.4_emission_altitude90_max_angle_discretization1
Loading the sky emission cube...
Has_sky_emission: True
Has_ground_emission: False
lagorge 0.10361906322688955 0.7891042478910105
ALT MAP BOUNDS 5.037613394081269 6.836256605918731 44.31302139408126 46.111664605918726
0.01569612305760477
ALT MAP BOUNDS 5.036200993144891 6.8348442049823515 44.309575523615855 46.10821873545331
ALT MAP BOUNDS 5.036200993144891 6.8348442049823515 44.309575523615855 46.10821873545331
Initialization DONE
*******************************************************************************************************************************
STARTING calculation for obs:
Observation at point (5.936935, 45.212343), azimuth 180.0, elevation 90.0. Observed point at altitude 90.0, position (5.936935000000001, 45.212343000000004)
999.0 bins to compute
  0%|          | 0/999.0 [00:00<?, ?it/s] 28%|██▊       | 284/999.0 [00:00<00:00, 2837.80it/s]/home/bossel/These/Analysis/src/rayleigh/world.py:385: RuntimeWarning: divide by zero encountered in double_scalars
  I0 *= self.sky_map.GetPixelArea(ie_E) / RE ** 2
 54%|█████▍    | 538/999.0 [00:00<00:00, 2741.23it/s] 67%|██████▋   | 674/999.0 [00:00<00:00, 1148.51it/s] 78%|███████▊  | 784/999.0 [00:02<00:01, 161.80it/s]  86%|████████▋ | 863/999.0 [00:15<00:07, 18.97it/s]  86%|████████▋ | 864/999.0 [00:15<00:24,  5.56it/s] 87%|████████▋ | 865/999.0 [00:16<00:36,  3.66it/s] 87%|████████▋ | 866/999.0 [00:16<00:50,  2.66it/s] 87%|████████▋ | 867/999.0 [00:17<00:59,  2.23it/s] 87%|████████▋ | 868/999.0 [00:18<01:09,  1.87it/s] 87%|████████▋ | 869/999.0 [00:18<01:17,  1.68it/s] 87%|████████▋ | 870/999.0 [00:19<01:22,  1.57it/s] 87%|████████▋ | 871/999.0 [00:20<01:31,  1.40it/s] 87%|████████▋ | 872/999.0 [00:21<01:37,  1.30it/s] 87%|████████▋ | 873/999.0 [00:22<01:42,  1.23it/s] 87%|████████▋ | 874/999.0 [00:23<01:52,  1.11it/s] 88%|████████▊ | 875/999.0 [00:24<01:58,  1.05it/s] 88%|████████▊ | 876/999.0 [00:25<02:03,  1.00s/it] 88%|████████▊ | 877/999.0 [00:27<02:16,  1.12s/it] 88%|████████▊ | 878/999.0 [00:28<02:29,  1.23s/it] 88%|████████▊ | 879/999.0 [00:30<02:46,  1.38s/it] 88%|████████▊ | 880/999.0 [00:32<03:00,  1.52s/it] 88%|████████▊ | 881/999.0 [00:34<03:19,  1.69s/it] 88%|████████▊ | 882/999.0 [00:36<03:34,  1.83s/it] 88%|████████▊ | 883/999.0 [00:38<03:49,  1.98s/it] 88%|████████▊ | 884/999.0 [00:41<04:02,  2.11s/it] 89%|████████▊ | 885/999.0 [00:43<04:13,  2.23s/it] 89%|████████▊ | 886/999.0 [00:46<04:32,  2.41s/it] 89%|████████▉ | 887/999.0 [00:49<05:00,  2.69s/it] 89%|████████▉ | 888/999.0 [00:53<05:24,  2.92s/it] 89%|████████▉ | 889/999.0 [00:57<05:52,  3.21s/it] 89%|████████▉ | 890/999.0 [01:01<06:25,  3.54s/it] 89%|████████▉ | 891/999.0 [01:07<07:35,  4.22s/it] 89%|████████▉ | 892/999.0 [01:13<08:22,  4.69s/it] 89%|████████▉ | 893/999.0 [01:19<09:17,  5.26s/it] 89%|████████▉ | 894/999.0 [01:26<09:51,  5.63s/it] 90%|████████▉ | 895/999.0 [01:33<10:27,  6.03s/it] 90%|████████▉ | 896/999.0 [01:40<11:15,  6.56s/it] 90%|████████▉ | 897/999.0 [01:49<12:08,  7.14s/it] 90%|████████▉ | 898/999.0 [01:58<13:07,  7.80s/it] 90%|████████▉ | 899/999.0 [02:08<13:45,  8.25s/it] 90%|█████████ | 900/999.0 [02:17<14:18,  8.67s/it] 90%|█████████ | 901/999.0 [02:27<14:35,  8.93s/it] 90%|█████████ | 902/999.0 [02:36<14:41,  9.09s/it] 90%|█████████ | 903/999.0 [02:45<14:26,  9.02s/it] 90%|█████████ | 904/999.0 [02:53<13:52,  8.76s/it] 91%|█████████ | 905/999.0 [03:01<13:11,  8.42s/it] 91%|█████████ | 906/999.0 [03:08<12:24,  8.00s/it] 91%|█████████ | 907/999.0 [03:15<11:50,  7.72s/it] 91%|█████████ | 908/999.0 [03:21<11:06,  7.32s/it] 91%|█████████ | 909/999.0 [03:27<10:15,  6.84s/it] 91%|█████████ | 910/999.0 [03:32<09:26,  6.37s/it] 91%|█████████ | 911/999.0 [03:37<08:33,  5.84s/it] 91%|█████████▏| 912/999.0 [03:41<07:41,  5.30s/it] 91%|█████████▏| 913/999.0 [03:45<07:04,  4.94s/it] 91%|█████████▏| 914/999.0 [03:49<06:28,  4.57s/it] 92%|█████████▏| 915/999.0 [03:52<05:51,  4.19s/it] 92%|█████████▏| 916/999.0 [03:55<05:22,  3.89s/it] 92%|█████████▏| 917/999.0 [03:58<04:52,  3.56s/it] 92%|█████████▏| 918/999.0 [04:00<04:15,  3.15s/it] 92%|█████████▏| 919/999.0 [04:02<03:41,  2.77s/it] 92%|█████████▏| 920/999.0 [04:04<03:18,  2.51s/it] 92%|█████████▏| 921/999.0 [04:06<03:00,  2.32s/it] 92%|█████████▏| 922/999.0 [04:07<02:41,  2.10s/it] 92%|█████████▏| 923/999.0 [04:09<02:28,  1.95s/it] 92%|█████████▏| 924/999.0 [04:10<02:12,  1.77s/it] 93%|█████████▎| 925/999.0 [04:12<01:56,  1.58s/it] 93%|█████████▎| 926/999.0 [04:13<01:46,  1.45s/it] 93%|█████████▎| 927/999.0 [04:14<01:39,  1.38s/it] 93%|█████████▎| 928/999.0 [04:15<01:34,  1.33s/it] 93%|█████████▎| 929/999.0 [04:16<01:26,  1.23s/it] 93%|█████████▎| 930/999.0 [04:17<01:19,  1.16s/it] 93%|█████████▎| 931/999.0 [04:18<01:15,  1.11s/it] 93%|█████████▎| 932/999.0 [04:19<01:12,  1.08s/it] 93%|█████████▎| 933/999.0 [04:20<01:06,  1.00s/it] 93%|█████████▎| 934/999.0 [04:21<01:02,  1.04it/s] 94%|█████████▎| 935/999.0 [04:22<00:56,  1.14it/s] 94%|█████████▎| 936/999.0 [04:22<00:51,  1.23it/s] 94%|█████████▍| 937/999.0 [04:23<00:47,  1.30it/s] 94%|█████████▍| 938/999.0 [04:23<00:42,  1.43it/s] 94%|█████████▍| 939/999.0 [04:24<00:39,  1.54it/s] 94%|█████████▍| 940/999.0 [04:24<00:36,  1.62it/s] 94%|█████████▍| 941/999.0 [04:25<00:34,  1.66it/s] 94%|█████████▍| 942/999.0 [04:26<00:33,  1.71it/s] 94%|█████████▍| 943/999.0 [04:26<00:32,  1.74it/s] 94%|█████████▍| 944/999.0 [04:27<00:31,  1.76it/s] 95%|█████████▍| 945/999.0 [04:27<00:28,  1.89it/s] 95%|█████████▍| 946/999.0 [04:28<00:26,  2.02it/s] 95%|█████████▍| 947/999.0 [04:28<00:24,  2.08it/s] 95%|█████████▍| 948/999.0 [04:28<00:24,  2.11it/s] 95%|█████████▍| 949/999.0 [04:29<00:22,  2.26it/s] 95%|█████████▌| 950/999.0 [04:29<00:21,  2.28it/s] 95%|█████████▌| 951/999.0 [04:30<00:20,  2.35it/s] 95%|█████████▌| 952/999.0 [04:30<00:20,  2.33it/s] 95%|█████████▌| 953/999.0 [04:30<00:19,  2.34it/s] 95%|█████████▌| 954/999.0 [04:31<00:18,  2.43it/s] 96%|█████████▌| 955/999.0 [04:31<00:15,  2.77it/s] 96%|█████████▌| 956/999.0 [04:31<00:13,  3.09it/s] 96%|█████████▌| 957/999.0 [04:32<00:12,  3.27it/s] 96%|█████████▌| 958/999.0 [04:32<00:12,  3.38it/s] 96%|█████████▌| 959/999.0 [04:32<00:11,  3.56it/s] 96%|█████████▌| 960/999.0 [04:32<00:10,  3.66it/s] 96%|█████████▌| 961/999.0 [04:33<00:10,  3.65it/s] 96%|█████████▋| 962/999.0 [04:33<00:10,  3.67it/s] 96%|█████████▋| 963/999.0 [04:33<00:09,  3.80it/s] 96%|█████████▋| 964/999.0 [04:33<00:09,  3.61it/s] 97%|█████████▋| 965/999.0 [04:34<00:09,  3.68it/s] 97%|█████████▋| 966/999.0 [04:34<00:09,  3.64it/s] 97%|█████████▋| 967/999.0 [04:34<00:08,  3.79it/s] 97%|█████████▋| 968/999.0 [04:35<00:08,  3.68it/s] 97%|█████████▋| 969/999.0 [04:35<00:07,  4.13it/s] 97%|█████████▋| 970/999.0 [04:35<00:06,  4.53it/s] 97%|█████████▋| 971/999.0 [04:35<00:05,  4.82it/s] 97%|█████████▋| 972/999.0 [04:35<00:05,  4.90it/s] 97%|█████████▋| 973/999.0 [04:35<00:05,  5.00it/s] 97%|█████████▋| 974/999.0 [04:36<00:04,  5.11it/s] 98%|█████████▊| 975/999.0 [04:36<00:04,  5.27it/s] 98%|█████████▊| 976/999.0 [04:36<00:04,  5.34it/s] 98%|█████████▊| 977/999.0 [04:36<00:04,  5.42it/s] 98%|█████████▊| 978/999.0 [04:36<00:03,  5.48it/s] 98%|█████████▊| 979/999.0 [04:37<00:03,  5.57it/s] 98%|█████████▊| 980/999.0 [04:37<00:03,  6.17it/s] 98%|█████████▊| 981/999.0 [04:37<00:02,  6.66it/s] 98%|█████████▊| 982/999.0 [04:37<00:02,  7.06it/s] 98%|█████████▊| 983/999.0 [04:37<00:02,  7.30it/s] 98%|█████████▊| 984/999.0 [04:37<00:01,  7.51it/s] 99%|█████████▊| 985/999.0 [04:37<00:01,  7.71it/s] 99%|█████████▊| 986/999.0 [04:37<00:01,  7.85it/s] 99%|█████████▉| 987/999.0 [04:38<00:01,  7.96it/s] 99%|█████████▉| 988/999.0 [04:38<00:01,  8.03it/s] 99%|█████████▉| 989/999.0 [04:38<00:01,  7.97it/s] 99%|█████████▉| 990/999.0 [04:38<00:01,  7.96it/s] 99%|█████████▉| 991/999.0 [04:38<00:01,  7.86it/s] 99%|█████████▉| 992/999.0 [04:38<00:00,  7.54it/s] 99%|█████████▉| 993/999.0 [04:38<00:00,  7.66it/s]100%|█████████▉| 995/999.0 [04:38<00:00,  8.60it/s]100%|█████████▉| 997/999.0 [04:39<00:00,  9.32it/s]100%|██████████| 999/999.0 [04:39<00:00,  9.99it/s]100%|██████████| 999/999.0 [04:39<00:00,  3.58it/s]
Computing DONE
opt_depth, direct:
0.3936444653517414 0
/home/bossel/These/Analysis/src/rayleigh/world.py:547: RuntimeWarning: More than 20 figures have been opened. Figures created through the pyplot interface (`matplotlib.pyplot.figure`) are retained until explicitly closed and may consume too much memory. (To control this warning, see the rcParam `figure.max_open_warning`).
  f3, ax = plt.subplots(1, figsize=(16, 8))
Making and NOT saving plots...
/home/bossel/These/Analysis/src/rayleigh/simulation.py:281: RuntimeWarning: More than 20 figures have been opened. Figures created through the pyplot interface (`matplotlib.pyplot.figure`) are retained until explicitly closed and may consume too much memory. (To control this warning, see the rcParam `figure.max_open_warning`).
  f1, (ax1, ax2, ax3, ax4) = plt.subplots(4, sharex = True, sharey = True, figsize=(16, 8))
/home/bossel/These/Analysis/src/rayleigh/simulation.py:362: RuntimeWarning: More than 20 figures have been opened. Figures created through the pyplot interface (`matplotlib.pyplot.figure`) are retained until explicitly closed and may consume too much memory. (To control this warning, see the rcParam `figure.max_open_warning`).
  f4, (ax1) = plt.subplots(1, sharex=True, figsize=(16, 8))
ALL TIME SINCE START: 280.02150082588196
