Correct input file in use: systemic/systemic_azimuts0_elevations90_point_src_dist2_point_src_az0_resolution_along_los0.1_RS_min_altitude0_RS_max_altitude100_wavelength391.4_emission_altitude90_max_angle_discretization1
Has_sky_emission: False
AzDistToLonLat 0.0 2.0 0.0 0.0003139224611520954 0.0 1.9999999999999998
Has_ground_emission: True
lagorge 0.10361906322688955 0.7891042478910105
ALT MAP BOUNDS 5.037613394081269 6.836256605918731 44.31302139408126 46.111664605918726
0.01569612305760477
ALT MAP BOUNDS 5.036200993144891 6.8348442049823515 44.309575523615855 46.10821873545331
ALT MAP BOUNDS 5.036200993144891 6.8348442049823515 44.309575523615855 46.10821873545331
Initialization DONE
*******************************************************************************************************************************
STARTING calculation for obs:
Observation at point (5.936935, 45.212343), azimuth 0.0, elevation 90.0. Observed point at altitude 90.0, position (5.936935000000001, 45.212343000000004)
999 bins to compute
  0%|          | 0/999 [00:00<?, ?it/s]  7%|▋         | 67/999 [00:00<00:01, 660.67it/s] 13%|█▎        | 125/999 [00:00<00:01, 633.52it/s] 21%|██        | 208/999 [00:00<00:01, 681.82it/s] 55%|█████▍    | 545/999 [00:00<00:00, 896.16it/s] 87%|████████▋ | 870/999 [00:00<00:00, 1144.72it/s]100%|██████████| 999/999 [00:00<00:00, 1833.30it/s]
Computing DONE
3.5579797158497604e-07 3.540915815037018e-07
Making and NOT saving plots...
ALL TIME SINCE START: 1.0544228553771973
